<?xml version="1.0" encoding="UTF-8" standalone="no"?>
<svg
   xmlns:dc="http://purl.org/dc/elements/1.1/"
   xmlns:cc="http://creativecommons.org/ns#"
   xmlns:rdf="http://www.w3.org/1999/02/22-rdf-syntax-ns#"
   xmlns:svg="http://www.w3.org/2000/svg"
   xmlns="http://www.w3.org/2000/svg"
   width="190.21642mm"
   height="299.5257mm"
   viewBox="0 0 190.21642 299.5257"
   version="1.1"
   id="svg5512">
  <defs
     id="defs5506" />
  <metadata
     id="metadata5509">
    <rdf:RDF>
      <cc:Work
         rdf:about="">
        <dc:format>image/svg+xml</dc:format>
        <dc:type
           rdf:resource="http://purl.org/dc/dcmitype/StillImage" />
        <dc:title></dc:title>
      </cc:Work>
    </rdf:RDF>
  </metadata>
  <g
     id="layer1"
     transform="translate(30.084496,128.1)">
    <path
       id="path9725"
       style="fill:#00d9b0;fill-opacity:1;stroke-width:0.389348"
       d="m 65.005728,-128.1 v 0 c -12.019949,0.10001 -24.755649,2.40021 -36.377419,7.0006 -25.6139613,10.20088 -45.353957,30.402609 -53.892732,55.404754 -3.637703,10.600909 -5.136656,20.501759 -4.764934,31.602711 0.59877,17.701519 3.988223,29.0024884 14.023375,46.50399 6.5466387,11.400978 9.8320227,16.401407 21.7624027,33.302857 14.2209653,20.101725 26.9044213,40.403466 34.3554053,55.104728 10.259695,20.10172 16.282739,40.00343 18.928996,62.40535 0.253716,2.10018 0.545605,3.60031 1.020516,4.70041 0.725382,2.10018 2.709296,3.5003 4.94439,3.5003 v 0 c 0.0064,0 0.01199,0 0.01834,0 0.0056,0 0.0113,0 0.01765,0 v 0 c 2.235094,0 4.219011,-1.40012 4.944397,-3.5003 0.47491,-1.1001 0.76683,-2.60023 1.02052,-4.70041 2.64625,-22.40192 8.66933,-42.30363 18.92899,-62.40535 7.45099,-14.701262 20.134435,-35.003003 34.355405,-55.104728 11.93034,-16.90145 15.21576,-21.901879 21.7624,-33.302857 10.03515,-17.5015016 13.42464,-28.802471 14.02337,-46.50399 0.37166,-11.100952 -1.12723,-21.001802 -4.76493,-31.602711 -8.53878,-25.002145 -28.27875,-45.203874 -53.89278,-55.404754 -11.621695,-4.60039 -24.356725,-6.90059 -36.376672,-7.0006 v 0 c -0.0063,0 -0.01236,0 -0.01834,0 -0.0063,0 -0.01236,0 -0.01834,0 z m -0.04409,66.805731 a 23.840749,23.842795 0 0 1 0.04409,0 23.840749,23.842795 0 0 1 23.840727,23.802042 23.840749,23.842795 0 0 1 -23.840727,23.802043 23.840749,23.842795 0 0 1 -23.840686,-23.802043 23.840749,23.842795 0 0 1 23.796591,-23.802042 z" />
  </g>
</svg>
