<?xml version="1.0" encoding="UTF-8" standalone="no"?>
<svg
   xmlns:dc="http://purl.org/dc/elements/1.1/"
   xmlns:cc="http://creativecommons.org/ns#"
   xmlns:rdf="http://www.w3.org/1999/02/22-rdf-syntax-ns#"
   xmlns:svg="http://www.w3.org/2000/svg"
   xmlns="http://www.w3.org/2000/svg"
   xmlns:sodipodi="http://sodipodi.sourceforge.net/DTD/sodipodi-0.dtd"
   xmlns:inkscape="http://www.inkscape.org/namespaces/inkscape"
   width="121.9041mm"
   height="42.418282mm"
   viewBox="0 0 121.9041 42.418281"
   version="1.1"
   id="svg8"
   inkscape:version="1.0.2 (394de47547, 2021-03-26)"
   sodipodi:docname="commun-2.svg">
  <defs
     id="defs2">
    <inkscape:path-effect
       effect="spiro"
       id="path-effect36"
       is_visible="true"
       lpeversion="1" />
    <inkscape:path-effect
       effect="spiro"
       id="path-effect32"
       is_visible="true"
       lpeversion="1" />
    <inkscape:path-effect
       effect="spiro"
       id="path-effect24"
       is_visible="true"
       lpeversion="1" />
  </defs>
  <sodipodi:namedview
     id="base"
     pagecolor="#ffffff"
     bordercolor="#666666"
     borderopacity="1.0"
     inkscape:pageopacity="0.0"
     inkscape:pageshadow="2"
     inkscape:zoom="1.5257174"
     inkscape:cx="261.06985"
     inkscape:cy="171.84318"
     inkscape:document-units="mm"
     inkscape:current-layer="layer1"
     inkscape:document-rotation="0"
     showgrid="false"
     inkscape:window-width="1872"
     inkscape:window-height="1016"
     inkscape:window-x="48"
     inkscape:window-y="1107"
     inkscape:window-maximized="1"
     showguides="true"
     inkscape:guide-bbox="true"
     fit-margin-top="0"
     fit-margin-left="0"
     fit-margin-right="0"
     fit-margin-bottom="0" />
  <metadata
     id="metadata5">
    <rdf:RDF>
      <cc:Work
         rdf:about="">
        <dc:format>image/svg+xml</dc:format>
        <dc:type
           rdf:resource="http://purl.org/dc/dcmitype/StillImage" />
        <dc:title></dc:title>
      </cc:Work>
    </rdf:RDF>
  </metadata>
  <g
     inkscape:label="Calque 1"
     inkscape:groupmode="layer"
     id="layer1"
     transform="translate(68.538049,-49.2162)">
    <g
       id="g1010"
       style="mix-blend-mode:multiply"
       transform="translate(0.41431176,0.034498)">
      <path
         id="path860"
         style="color:#000000;font-style:normal;font-variant:normal;font-weight:normal;font-stretch:normal;font-size:medium;line-height:normal;font-family:sans-serif;font-variant-ligatures:normal;font-variant-position:normal;font-variant-caps:normal;font-variant-numeric:normal;font-variant-alternates:normal;font-variant-east-asian:normal;font-feature-settings:normal;font-variation-settings:normal;text-indent:0;text-align:start;text-decoration:none;text-decoration-line:none;text-decoration-style:solid;text-decoration-color:#000000;letter-spacing:normal;word-spacing:normal;text-transform:none;writing-mode:lr-tb;direction:ltr;text-orientation:mixed;dominant-baseline:auto;baseline-shift:baseline;text-anchor:start;white-space:normal;shape-padding:0;shape-margin:0;inline-size:0;clip-rule:nonzero;display:inline;overflow:visible;visibility:visible;isolation:auto;mix-blend-mode:multiply;color-interpolation:sRGB;color-interpolation-filters:linearRGB;solid-color:#000000;solid-opacity:1;vector-effect:none;fill:#f7f1e7;fill-opacity:1;fill-rule:nonzero;stroke:none;stroke-width:0.474559;stroke-linecap:round;stroke-linejoin:round;stroke-miterlimit:4;stroke-dasharray:none;stroke-dashoffset:0;stroke-opacity:1;color-rendering:auto;image-rendering:auto;shape-rendering:auto;text-rendering:auto;enable-background:accumulate;stop-color:#000000"
         d="m -42.463499,70.38088 c 0,11.65155 9.49976,21.15032 21.1513,21.15032 a 2.5201478,2.5201478 0 0 0 2.52029,-2.52003 2.5201478,2.5201478 0 0 0 -2.52029,-2.51931 c -8.92757,0 -16.11099,-7.18341 -16.11098,-16.11098 a 2.5201478,2.5201478 0 0 0 -2.52004,-2.52004 2.5201478,2.5201478 0 0 0 -2.52028,2.52004 z m 1.20288,0.013 a 1.3197165,1.3197165 0 0 1 0,-0.0191 1.3197165,1.3197165 0 0 1 1.31961,-1.31986 1.3197165,1.3197165 0 0 1 1.31985,1.31986 1.3197165,1.3197165 0 0 1 -1.31985,1.31961 1.3197165,1.3197165 0 0 1 -1.31961,-1.30048 z m 5.44961,13.18654 a 1.3197165,1.3197165 0 0 1 0,-0.0191 1.3197165,1.3197165 0 0 1 1.31961,-1.31986 1.3197165,1.3197165 0 0 1 1.31986,1.31986 1.3197165,1.3197165 0 0 1 -1.31986,1.31961 1.3197165,1.3197165 0 0 1 -1.31961,-1.30048 z m 13.17576,5.43171 a 1.3197165,1.3197165 0 0 1 1.31962,-1.3196 1.3197165,1.3197165 0 0 1 1.31985,1.3196 1.3197165,1.3197165 0 0 1 -1.31985,1.31987 1.3197165,1.3197165 0 0 1 -1.31962,-1.31987 z" />
      <path
         id="path860-7"
         style="color:#000000;font-style:normal;font-variant:normal;font-weight:normal;font-stretch:normal;font-size:medium;line-height:normal;font-family:sans-serif;font-variant-ligatures:normal;font-variant-position:normal;font-variant-caps:normal;font-variant-numeric:normal;font-variant-alternates:normal;font-variant-east-asian:normal;font-feature-settings:normal;font-variation-settings:normal;text-indent:0;text-align:start;text-decoration:none;text-decoration-line:none;text-decoration-style:solid;text-decoration-color:#000000;letter-spacing:normal;word-spacing:normal;text-transform:none;writing-mode:lr-tb;direction:ltr;text-orientation:mixed;dominant-baseline:auto;baseline-shift:baseline;text-anchor:start;white-space:normal;shape-padding:0;shape-margin:0;inline-size:0;clip-rule:nonzero;display:inline;overflow:visible;visibility:visible;isolation:auto;mix-blend-mode:multiply;color-interpolation:sRGB;color-interpolation-filters:linearRGB;solid-color:#000000;solid-opacity:1;vector-effect:none;fill:#f0d4fd;fill-opacity:1;fill-rule:nonzero;stroke:none;stroke-width:0.474559;stroke-linecap:round;stroke-linejoin:round;stroke-miterlimit:4;stroke-dasharray:none;stroke-dashoffset:0;stroke-opacity:1;color-rendering:auto;image-rendering:auto;shape-rendering:auto;text-rendering:auto;enable-background:accumulate;stop-color:#000000"
         d="m -21.313379,49.2162 c -11.65156,0 -21.15033,9.49975 -21.15033,21.1513 a 2.5201478,2.5201478 0 0 0 2.52004,2.52029 2.5201478,2.5201478 0 0 0 2.5193,-2.52029 c 0,-8.92757 7.18342,-16.11098 16.11099,-16.11098 a 2.5201478,2.5201478 0 0 0 2.52003,-2.52004 2.5201478,2.5201478 0 0 0 -2.52003,-2.52028 z m -0.013,1.20288 a 1.3197165,1.3197165 0 0 1 0.0192,0 1.3197165,1.3197165 0 0 1 1.31985,1.31961 1.3197165,1.3197165 0 0 1 -1.31985,1.31985 1.3197165,1.3197165 0 0 1 -1.31961,-1.31985 1.3197165,1.3197165 0 0 1 1.30048,-1.31961 z m -13.18658,5.44961 a 1.3197165,1.3197165 0 0 1 0.0191,0 1.3197165,1.3197165 0 0 1 1.31986,1.31962 1.3197165,1.3197165 0 0 1 -1.31986,1.31986 1.3197165,1.3197165 0 0 1 -1.31961,-1.31986 1.3197165,1.3197165 0 0 1 1.30049,-1.31962 z m -5.43172,13.17577 a 1.3197165,1.3197165 0 0 1 1.31961,1.31961 1.3197165,1.3197165 0 0 1 -1.31961,1.31986 1.3197165,1.3197165 0 0 1 -1.31986,-1.31986 1.3197165,1.3197165 0 0 1 1.31986,-1.31961 z" />
      <path
         id="path951"
         style="color:#000000;font-style:normal;font-variant:normal;font-weight:normal;font-stretch:normal;font-size:medium;line-height:normal;font-family:sans-serif;font-variant-ligatures:normal;font-variant-position:normal;font-variant-caps:normal;font-variant-numeric:normal;font-variant-alternates:normal;font-variant-east-asian:normal;font-feature-settings:normal;font-variation-settings:normal;text-indent:0;text-align:start;text-decoration:none;text-decoration-line:none;text-decoration-style:solid;text-decoration-color:#000000;letter-spacing:normal;word-spacing:normal;text-transform:none;writing-mode:lr-tb;direction:ltr;text-orientation:mixed;dominant-baseline:auto;baseline-shift:baseline;text-anchor:start;white-space:normal;shape-padding:0;shape-margin:0;inline-size:0;clip-rule:nonzero;display:inline;overflow:visible;visibility:visible;isolation:auto;mix-blend-mode:multiply;color-interpolation:sRGB;color-interpolation-filters:linearRGB;solid-color:#000000;solid-opacity:1;vector-effect:none;fill:#00dab0;fill-opacity:1;fill-rule:nonzero;stroke:none;stroke-width:0.474559;stroke-linecap:round;stroke-linejoin:round;stroke-miterlimit:4;stroke-dasharray:none;stroke-dashoffset:0;stroke-opacity:1;color-rendering:auto;image-rendering:auto;shape-rendering:auto;text-rendering:auto;enable-background:accumulate;stop-color:#000000"
         d="m -0.145379,70.4008 c 0,-11.65155 -9.49975,-21.15032 -21.1513,-21.15032 a 2.5201478,2.5201478 0 0 0 -2.52028,2.52003 2.5201478,2.5201478 0 0 0 2.52028,2.51931 c 8.92757,0 16.11098,7.1834 16.11098,16.11098 a 2.5201478,2.5201478 0 0 0 2.52004,2.52004 2.5201478,2.5201478 0 0 0 2.52028,-2.52004 z m -1.20288,-0.013 a 1.3197165,1.3197165 0 0 1 0,0.0191 1.3197165,1.3197165 0 0 1 -1.31961,1.31986 1.3197165,1.3197165 0 0 1 -1.31986,-1.31986 1.3197165,1.3197165 0 0 1 1.31986,-1.31961 1.3197165,1.3197165 0 0 1 1.31961,1.30048 z m -5.44962,-13.18655 a 1.3197165,1.3197165 0 0 1 0,0.0191 1.3197165,1.3197165 0 0 1 -1.31961,1.31986 1.3197165,1.3197165 0 0 1 -1.31985,-1.31986 1.3197165,1.3197165 0 0 1 1.31985,-1.31961 1.3197165,1.3197165 0 0 1 1.31961,1.30049 z m -13.17575,-5.43172 a 1.3197165,1.3197165 0 0 1 -1.31962,1.31961 1.3197165,1.3197165 0 0 1 -1.31985,-1.31961 1.3197165,1.3197165 0 0 1 1.31985,-1.31986 1.3197165,1.3197165 0 0 1 1.31962,1.31986 z" />
      <path
         id="path953"
         style="color:#000000;font-style:normal;font-variant:normal;font-weight:normal;font-stretch:normal;font-size:medium;line-height:normal;font-family:sans-serif;font-variant-ligatures:normal;font-variant-position:normal;font-variant-caps:normal;font-variant-numeric:normal;font-variant-alternates:normal;font-variant-east-asian:normal;font-feature-settings:normal;font-variation-settings:normal;text-indent:0;text-align:start;text-decoration:none;text-decoration-line:none;text-decoration-style:solid;text-decoration-color:#000000;letter-spacing:normal;word-spacing:normal;text-transform:none;writing-mode:lr-tb;direction:ltr;text-orientation:mixed;dominant-baseline:auto;baseline-shift:baseline;text-anchor:start;white-space:normal;shape-padding:0;shape-margin:0;inline-size:0;clip-rule:nonzero;display:inline;overflow:visible;visibility:visible;isolation:auto;mix-blend-mode:multiply;color-interpolation:sRGB;color-interpolation-filters:linearRGB;solid-color:#000000;solid-opacity:1;vector-effect:none;fill:#3e0a51;fill-opacity:1;fill-rule:nonzero;stroke:none;stroke-width:0.474559;stroke-linecap:round;stroke-linejoin:round;stroke-miterlimit:4;stroke-dasharray:none;stroke-dashoffset:0;stroke-opacity:1;color-rendering:auto;image-rendering:auto;shape-rendering:auto;text-rendering:auto;enable-background:accumulate;stop-color:#000000"
         d="m -21.295499,91.56549 c 11.65156,0 21.15033,-9.49976 21.15033,-21.15131 a 2.5201478,2.5201478 0 0 0 -2.52003,-2.52029 2.5201478,2.5201478 0 0 0 -2.51931,2.52029 c 0,8.92757 -7.18341,16.11099 -16.11099,16.11098 a 2.5201478,2.5201478 0 0 0 -2.52003,2.52004 2.5201478,2.5201478 0 0 0 2.52003,2.52029 z m 0.013,-1.20288 a 1.3197165,1.3197165 0 0 1 -0.0192,0 1.3197165,1.3197165 0 0 1 -1.31985,-1.31961 1.3197165,1.3197165 0 0 1 1.31985,-1.31986 1.3197165,1.3197165 0 0 1 1.31962,1.31986 1.3197165,1.3197165 0 0 1 -1.30049,1.31961 z m 13.18654,-5.44962 a 1.3197165,1.3197165 0 0 1 -0.0192,0 1.3197165,1.3197165 0 0 1 -1.31985,-1.31962 1.3197165,1.3197165 0 0 1 1.31985,-1.31985 1.3197165,1.3197165 0 0 1 1.31962,1.31985 1.3197165,1.3197165 0 0 1 -1.30049,1.31962 z m 5.43172,-13.17577 a 1.3197165,1.3197165 0 0 1 -1.31962,-1.31961 1.3197165,1.3197165 0 0 1 1.31962,-1.31986 1.3197165,1.3197165 0 0 1 1.31985,1.31986 1.3197165,1.3197165 0 0 1 -1.31985,1.31961 z" />
    </g>
  </g>
</svg>
