<?xml version="1.0" encoding="UTF-8" standalone="no"?>
<svg
   xmlns:dc="http://purl.org/dc/elements/1.1/"
   xmlns:cc="http://creativecommons.org/ns#"
   xmlns:rdf="http://www.w3.org/1999/02/22-rdf-syntax-ns#"
   xmlns:svg="http://www.w3.org/2000/svg"
   xmlns="http://www.w3.org/2000/svg"
   xmlns:sodipodi="http://sodipodi.sourceforge.net/DTD/sodipodi-0.dtd"
   xmlns:inkscape="http://www.inkscape.org/namespaces/inkscape"
   width="118.35262mm"
   height="34.962833mm"
   viewBox="0 0 118.35262 34.962833"
   version="1.1"
   id="svg5884"
   inkscape:version="1.0.1 (3bc2e813f5, 2020-09-07, custom)"
   sodipodi:docname="usine.svg">
  <defs
     id="defs5878" />
  <sodipodi:namedview
     id="base"
     pagecolor="#ffffff"
     bordercolor="#666666"
     borderopacity="1.0"
     inkscape:pageopacity="0.0"
     inkscape:pageshadow="2"
     inkscape:zoom="1.4"
     inkscape:cx="265.10448"
     inkscape:cy="215.73479"
     inkscape:document-units="mm"
     inkscape:current-layer="layer1"
     inkscape:document-rotation="0"
     showgrid="false"
     fit-margin-top="0"
     fit-margin-left="0"
     fit-margin-right="0"
     fit-margin-bottom="0"
     inkscape:window-width="1920"
     inkscape:window-height="1043"
     inkscape:window-x="0"
     inkscape:window-y="37"
     inkscape:window-maximized="1" />
  <metadata
     id="metadata5881">
    <rdf:RDF>
      <cc:Work
         rdf:about="">
        <dc:format>image/svg+xml</dc:format>
        <dc:type
           rdf:resource="http://purl.org/dc/dcmitype/StillImage" />
        <dc:title></dc:title>
      </cc:Work>
    </rdf:RDF>
  </metadata>
  <g
     inkscape:label="Calque 1"
     inkscape:groupmode="layer"
     id="layer1"
     transform="translate(-5.8355948,-27.875725)">
    <path
       id="path9795-8"
       style="fill:#f0d4fd;fill-opacity:1;stroke:none;stroke-width:0.0462682px;stroke-linecap:butt;stroke-linejoin:miter;stroke-opacity:1"
       d="M 25.576687,27.875725 5.8355948,47.619198 V 62.83856 h 59.1359622 0.08123 59.135423 V 27.875725 L 104.45586,47.607292 V 27.875725 L 84.712385,47.619198 V 27.875725 l -19.6596,19.662246 V 27.875725 L 45.32016,47.607292 V 27.875725 L 25.576687,47.619198 Z" />
  </g>
</svg>
