<?xml version="1.0" encoding="UTF-8" standalone="no"?>
<svg
   xmlns:dc="http://purl.org/dc/elements/1.1/"
   xmlns:cc="http://creativecommons.org/ns#"
   xmlns:rdf="http://www.w3.org/1999/02/22-rdf-syntax-ns#"
   xmlns:svg="http://www.w3.org/2000/svg"
   xmlns="http://www.w3.org/2000/svg"
   xmlns:sodipodi="http://sodipodi.sourceforge.net/DTD/sodipodi-0.dtd"
   xmlns:inkscape="http://www.inkscape.org/namespaces/inkscape"
   width="18.672699mm"
   height="17.11664mm"
   viewBox="0 0 18.672699 17.11664"
   version="1.1"
   id="svg17845"
   inkscape:version="1.0.1 (0767f8302a, 2020-10-17)"
   sodipodi:docname="burnout.svg">
  <defs
     id="defs17839" />
  <sodipodi:namedview
     id="base"
     pagecolor="#ffffff"
     bordercolor="#666666"
     borderopacity="1.0"
     inkscape:pageopacity="0.0"
     inkscape:pageshadow="2"
     inkscape:zoom="1.4"
     inkscape:cx="79.484556"
     inkscape:cy="182.61765"
     inkscape:document-units="mm"
     inkscape:current-layer="layer1"
     inkscape:document-rotation="0"
     showgrid="false"
     fit-margin-top="0"
     fit-margin-left="0"
     fit-margin-right="0"
     fit-margin-bottom="0"
     inkscape:window-width="1880"
     inkscape:window-height="1043"
     inkscape:window-x="40"
     inkscape:window-y="0"
     inkscape:window-maximized="1" />
  <metadata
     id="metadata17842">
    <rdf:RDF>
      <cc:Work
         rdf:about="">
        <dc:format>image/svg+xml</dc:format>
        <dc:type
           rdf:resource="http://purl.org/dc/dcmitype/StillImage" />
        <dc:title />
      </cc:Work>
    </rdf:RDF>
  </metadata>
  <g
     inkscape:label="Calque 1"
     inkscape:groupmode="layer"
     id="layer1"
     transform="translate(-82.717971,-56.975312)">
    <path
       style="mix-blend-mode:multiply;fill:#00ff00;stroke-width:1"
       d="m 83.496001,73.313922 v -0.77803 h 0.77803 0.77804 v -0.77803 -0.77802 h 1.16704 1.16704 v -0.77803 -0.77803 h 4.66817 4.66818 v 0.77803 0.77803 h 1.16704 1.16704 v 0.77802 0.77803 h 0.77803 0.778029 v 0.77803 0.77803 h -0.778029 -0.77803 v -0.77803 -0.77803 h -1.16704 -1.16704 v -0.77803 -0.77802 h -4.66818 -4.66817 v 0.77802 0.77803 h -1.16704 -1.16704 v 0.77803 0.77803 h -0.77804 -0.77803 z m 6.22424,-7.78029 v -0.77803 h -0.77803 -0.77803 v -0.77803 -0.77803 h 0.77803 0.77803 v 0.77803 0.77803 h 2.33408 2.33408 v -0.77803 -0.77803 h 0.77803 0.77804 v 0.77803 0.77803 h -0.77804 -0.77803 v 0.77803 0.77804 h -2.33408 -2.33408 z m -7.00227,-4.66817 v -0.77803 h 0.77803 0.77803 v -0.77803 -0.77804 h -0.77803 -0.77803 v -0.77803 -0.77802 h 0.77803 0.77803 v 0.77802 0.77803 h 0.77804 0.77803 v -0.77803 -0.77802 h 0.77801 0.77804 v 0.77802 0.77803 h -0.77804 -0.77801 v 0.77804 0.77803 h 0.77801 0.77804 v 0.77803 0.77804 h -0.77804 -0.77801 v -0.77804 -0.77803 h -0.77803 -0.77804 v 0.77803 0.77804 h -0.77803 -0.77803 z m 14.00453,0 v -0.77803 h 0.77803 0.77803 v -0.77803 -0.77804 h -0.77803 -0.77803 v -0.77803 -0.77802 h 0.77803 0.77803 v 0.77802 0.77803 h 0.77802 0.77803 v -0.77803 -0.77802 h 0.778029 0.77803 v 0.77802 0.77803 h -0.77803 -0.778029 v 0.77804 0.77803 h 0.778029 0.77803 v 0.77803 0.77804 h -0.77803 -0.778029 v -0.77804 -0.77803 h -0.77803 -0.77802 v 0.77803 0.77804 h -0.77803 -0.77803 z"
       id="path13138-4" />
  </g>
</svg>
