<?xml version="1.0" encoding="UTF-8" standalone="no"?>
<svg
   xmlns:dc="http://purl.org/dc/elements/1.1/"
   xmlns:cc="http://creativecommons.org/ns#"
   xmlns:rdf="http://www.w3.org/1999/02/22-rdf-syntax-ns#"
   xmlns:svg="http://www.w3.org/2000/svg"
   xmlns="http://www.w3.org/2000/svg"
   xmlns:sodipodi="http://sodipodi.sourceforge.net/DTD/sodipodi-0.dtd"
   xmlns:inkscape="http://www.inkscape.org/namespaces/inkscape"
   width="22.348419mm"
   height="23.10121mm"
   viewBox="0 0 22.348419 23.10121"
   version="1.1"
   id="svg13121"
   inkscape:version="1.0.1 (0767f8302a, 2020-10-17)"
   sodipodi:docname="cycle.svg">
  <defs
     id="defs13115" />
  <sodipodi:namedview
     id="base"
     pagecolor="#ffffff"
     bordercolor="#666666"
     borderopacity="1.0"
     inkscape:pageopacity="0.0"
     inkscape:pageshadow="2"
     inkscape:zoom="2.8"
     inkscape:cx="71.501849"
     inkscape:cy="78.863481"
     inkscape:document-units="mm"
     inkscape:current-layer="layer1"
     inkscape:document-rotation="0"
     showgrid="false"
     fit-margin-top="0"
     fit-margin-left="0"
     fit-margin-right="0"
     fit-margin-bottom="0"
     inkscape:window-width="1326"
     inkscape:window-height="704"
     inkscape:window-x="40"
     inkscape:window-y="1107"
     inkscape:window-maximized="1" />
  <metadata
     id="metadata13118">
    <rdf:RDF>
      <cc:Work
         rdf:about="">
        <dc:format>image/svg+xml</dc:format>
        <dc:type
           rdf:resource="http://purl.org/dc/dcmitype/StillImage" />
        <dc:title></dc:title>
      </cc:Work>
    </rdf:RDF>
  </metadata>
  <g
     inkscape:label="Calque 1"
     inkscape:groupmode="layer"
     id="layer1"
     transform="translate(-180.19023,-151.75187)">
    <path
       style="mix-blend-mode:multiply;fill:#ffff00;stroke-width:1"
       d="m 201.89267,174.8071 c 10e-4,-0.0381 0.009,-0.0459 0.0198,-0.0198 0.009,0.0236 0.008,0.0519 -0.002,0.0627 -0.0109,0.0109 -0.0186,-0.008 -0.0172,-0.043 z m 10e-4,-0.2673 c -0.003,-0.0567 0.0132,-0.0728 0.0699,-0.0698 0.0522,0.003 0.0575,0.008 0.0184,0.0184 -0.0304,0.008 -0.0618,0.0394 -0.0698,0.0699 -0.0103,0.0391 -0.0157,0.0338 -0.0184,-0.0184 z m 0.31737,-0.0633 c 0.0236,-0.009 0.0519,-0.008 0.0627,0.002 0.0109,0.0109 -0.008,0.0186 -0.043,0.0172 -0.0381,-0.001 -0.0459,-0.009 -0.0198,-0.0198 z m 0.26183,0 c 0.0236,-0.009 0.0519,-0.008 0.0627,0.002 0.0109,0.0109 -0.008,0.0186 -0.043,0.0172 -0.0381,-0.001 -0.0459,-0.009 -0.0198,-0.0198 z m -19.27153,-1.27045 v -0.37639 h -0.37639 -0.37639 v -0.37639 -0.37639 h -0.37639 -0.37639 v -1.50555 -1.50556 h 0.37639 0.37639 v -0.37639 -0.37639 h 0.37639 0.37639 v -0.37639 -0.37639 h 1.50556 1.50555 v 0.37639 0.37639 h 0.37639 0.37639 v 0.37639 0.37639 h 0.37639 0.37639 v 1.50556 1.50555 h -0.37639 -0.37639 v 0.37639 0.37639 h -0.37639 -0.37639 v 0.37639 0.37639 h -1.50555 -1.50556 z m 3.01111,-0.75278 v -0.37639 h 0.37639 0.37639 v -1.50555 -1.50556 h -0.37639 -0.37639 v -0.37639 -0.37639 h -1.50555 -1.50556 v 0.37639 0.37639 h -0.37639 -0.37639 v 1.50556 1.50555 h 0.37639 0.37639 v 0.37639 0.37639 h 1.50556 1.50555 z m 6.02223,0.75278 v -0.37639 h -0.37639 -0.37639 v -0.75278 -0.75278 h 1.12917 1.12917 v 0.75278 0.75278 h 0.37638 0.37639 v 0.37639 0.37639 h -1.12916 -1.12917 z m 4.51667,0 v -0.37639 h -0.37639 -0.37639 v -0.37639 -0.37639 h -0.37639 -0.37639 v -1.50555 -1.50556 h 0.37639 0.37639 v -0.37639 -0.37639 h 0.37639 0.37639 v -0.37639 -0.37639 h 1.50555 1.50556 v 0.37639 0.37639 h 0.37639 0.37639 v 0.37639 0.37639 h 0.37639 0.37639 v 1.50556 1.50555 h -0.37639 -0.37639 v 0.37639 0.37639 h -0.37639 -0.37639 v 0.37639 0.37639 h -1.50556 -1.50555 z m 3.01111,-0.75278 v -0.37639 h 0.37639 0.37639 v -1.50555 -1.50556 h -0.37639 -0.37639 v -0.37639 -0.37639 h -1.50556 -1.50555 v 0.37639 0.37639 h -0.37639 -0.37639 v 1.50556 1.50555 h 0.37639 0.37639 v 0.37639 0.37639 h 1.50555 1.50556 z m -9.78611,-3.01111 v -1.12917 h -0.37639 -0.37639 v -0.37639 -0.37639 h -0.37639 -0.37639 v -0.37639 -0.37639 h -3.3875 -3.38751 v -0.37639 -0.37639 h 0.75278 0.75278 v -0.37638 -0.37639 h 1.50556 1.50555 v 0.37639 0.37638 h 0.37639 0.37639 v -0.75277 -0.75278 h 0.37639 0.37639 v -0.37639 -0.37639 h 0.37639 0.37639 v -1.12917 -1.12916 h -0.37639 -0.37639 v 0.37639 0.37638 h -3.3875 -3.3875 v -0.37638 -0.37639 h -0.37639 -0.37639 v -4.51667 -4.51667 h 0.37639 0.37639 v -0.37639 -0.37639 h 3.3875 3.3875 v 0.37639 0.37639 h 0.37639 0.37639 v 2.25833 2.25834 h 0.37639 0.37639 v -0.37639 -0.37639 h 0.37639 0.37639 v -0.75278 -0.75278 h -0.37639 -0.37639 v -0.75278 -0.75277 h 0.37639 0.37639 v -0.37639 -0.37639 h 1.12916 1.12917 v 0.37639 0.37639 h 0.37639 0.37639 v 1.12916 1.12917 h -0.75278 -0.75278 v 0.37639 0.37639 h 0.37639 0.37639 v 1.88195 1.88194 h -0.37639 -0.37639 v 0.37639 0.37639 h 1.88195 1.88194 v 0.37639 0.37639 h 0.37639 0.37639 v 0.75277 0.75278 h 0.37639 0.37639 v 0.75278 0.75278 h 0.37639 0.37639 v 0.75278 0.75277 h 0.37639 0.37638 v 0.37639 0.37639 h -2.63472 -2.63472 v 0.75278 0.75278 h 0.37639 0.37639 v 1.12917 1.12917 h -0.37639 -0.37639 v -1.12917 -1.12917 h -0.75278 -0.75278 v 1.12917 1.12917 h -0.75278 -0.75277 z m 0.75277,-2.25834 v -0.37639 h -0.37638 -0.37639 v -0.37639 -0.37639 h -0.37639 -0.37639 v 0.75278 0.75278 h 0.75278 0.75277 z m 5.26945,-1.88194 v -0.75278 h -0.37639 -0.37639 v -1.12917 -1.12917 h -1.88194 -1.88195 v 0.75278 0.75278 h -0.37639 -0.37639 v -2.25833 -2.25834 h -0.37638 -0.37639 v 2.25834 2.25833 h -0.37639 -0.37639 v 0.75278 0.75278 h 0.37639 0.37639 v -0.37639 -0.37639 h 0.75277 0.75278 v 0.37639 0.37639 h 0.37639 0.37639 v 0.37639 0.37638 h 1.88194 1.88195 z m -8.28056,-8.28056 v -4.51667 h -3.3875 -3.3875 v 4.51667 4.51667 h 3.3875 3.3875 z m 4.51667,-3.01112 v -0.75277 h -1.12917 -1.12916 v 0.75277 0.75278 h 1.12916 1.12917 z"
       id="path1074" />
  </g>
</svg>
