<?xml version="1.0" encoding="UTF-8" standalone="no"?>
<svg
   xmlns:dc="http://purl.org/dc/elements/1.1/"
   xmlns:cc="http://creativecommons.org/ns#"
   xmlns:rdf="http://www.w3.org/1999/02/22-rdf-syntax-ns#"
   xmlns:svg="http://www.w3.org/2000/svg"
   xmlns="http://www.w3.org/2000/svg"
   xmlns:sodipodi="http://sodipodi.sourceforge.net/DTD/sodipodi-0.dtd"
   xmlns:inkscape="http://www.inkscape.org/namespaces/inkscape"
   width="24.355326mm"
   height="24.377314mm"
   viewBox="0 0 24.355326 24.377314"
   version="1.1"
   id="svg12298"
   inkscape:version="1.0.1 (0767f8302a, 2020-10-17)"
   sodipodi:docname="watch.svg">
  <defs
     id="defs12292" />
  <sodipodi:namedview
     id="base"
     pagecolor="#ffffff"
     bordercolor="#666666"
     borderopacity="1.0"
     inkscape:pageopacity="0.0"
     inkscape:pageshadow="2"
     inkscape:zoom="1.979899"
     inkscape:cx="27.667617"
     inkscape:cy="80.566658"
     inkscape:document-units="mm"
     inkscape:current-layer="layer1"
     inkscape:document-rotation="0"
     showgrid="false"
     fit-margin-top="0"
     fit-margin-left="0"
     fit-margin-right="0"
     fit-margin-bottom="0"
     inkscape:window-width="1326"
     inkscape:window-height="704"
     inkscape:window-x="40"
     inkscape:window-y="1107"
     inkscape:window-maximized="1" />
  <metadata
     id="metadata12295">
    <rdf:RDF>
      <cc:Work
         rdf:about="">
        <dc:format>image/svg+xml</dc:format>
        <dc:type
           rdf:resource="http://purl.org/dc/dcmitype/StillImage" />
        <dc:title></dc:title>
      </cc:Work>
    </rdf:RDF>
  </metadata>
  <g
     inkscape:label="Calque 1"
     inkscape:groupmode="layer"
     id="layer1"
     transform="translate(-75.754904,-54.544052)">
    <path
       style="mix-blend-mode:multiply;fill:#ffff00;stroke-width:1"
       d="m 75.754904,66.002055 h 3.79735 v -0.38193 -0.38194 h 0.38193 0.38194 v -0.38193 -0.38193 h 0.38193 0.38193 v -0.38193 -0.38194 h 0.38193 0.38194 v -0.38194 -0.38192 h 0.38193 0.38193 v -0.38194 -0.38193 h 0.38194 0.38193 v -0.38194 -0.38193 h 1.1458 1.1458 v -0.38193 -0.38194 h 0.76387 0.76387 v -1.1458 -1.1458 h 0.38193 0.38193 v -0.38194 -0.38192 h 0.38194 0.38193 v -0.38194 -0.38194 h 1.52773 1.52773 v 0.38194 0.38194 h 0.38194 0.38193 v 0.38192 0.38194 h 1.1458 1.1458 v -0.38194 -0.38192 h 0.76387 0.76387 v 0.38192 0.38194 h -0.76387 -0.76387 v 0.38193 0.38194 h -1.1458 -1.1458 v -0.38194 -0.38193 h -0.38193 -0.38194 v -0.38194 -0.38192 h -1.52773 -1.52773 v 0.38192 0.38194 h -0.38193 -0.38194 v 1.1458 1.1458 h 1.1458 1.1458 v 0.38194 0.38193 h 1.1458 1.1458 v 0.38193 0.38194 h 0.38194 0.38193 v 0.38193 0.38194 h 0.38193 0.38194 v 0.38192 0.38194 h 0.38193 0.38193 v 0.38194 0.38193 h 0.38194 0.38193 v 0.38193 0.38193 h 0.38193 0.38194 v 0.38194 0.38193 h 1.87645 1.876456 v 4.20127 4.20126 h -2.258386 -2.25839 v 0.38194 0.38194 h -0.38193 -0.38194 v 0.38192 0.38194 h -0.38193 -0.38193 v 0.38193 0.38194 h -0.38194 -0.38193 v 0.38193 0.38193 h -0.38193 -0.38194 v 0.38194 0.38192 h -1.1458 -1.1458 v 0.34874 0.34871 h -2.2916 -2.2916 v -0.34871 -0.34874 h -1.1458 -1.1458 v -0.38192 -0.38194 h -0.38193 -0.38194 v -0.38193 -0.38193 h -0.38193 -0.38193 v -0.38194 -0.38193 h -0.38194 -0.38193 v -0.38194 -0.38192 h -0.38193 -0.38193 v -0.38194 -0.38194 h -4.56122 c 0,-5.85659 4.2e-4,-4.89048 0,-8.40253 z m 14.49147,11.07607 v -0.38193 h 0.76387 0.76386 v -0.38194 -0.38193 h 0.38194 0.38193 v -0.38194 -0.38192 h 0.38194 0.38193 v -0.38194 -0.38194 h 0.38193 0.38194 v -0.38192 -0.38194 h 0.38193 0.38193 v -0.38193 -0.38194 h 0.38194 0.38193 v -2.67353 -2.67354 h -0.38193 -0.38194 v -0.76386 -0.76387 h -0.38193 -0.38193 v -0.38193 -0.38194 h -0.38194 -0.38193 v -0.38193 -0.38193 h -0.38193 -0.38194 v -0.38193 -0.38194 h -0.38193 -0.38194 v -0.38194 -0.38192 h -0.76386 -0.76387 v -0.38194 -0.38193 h -2.2916 -2.2916 v 0.38193 0.38194 h -0.76386 -0.76387 v 0.38192 0.38194 h -0.38193 -0.38194 v 0.38194 0.38193 h -0.38193 -0.38193 v 0.38193 0.38193 h -0.38194 -0.38193 v 0.38194 0.38193 h -0.38193 -0.38194 v 0.76387 0.76386 h -0.38193 -0.38193 v 2.2916 2.29161 h 0.38193 0.38193 v 0.76386 0.76387 h 0.38194 0.38193 v 0.38194 0.38192 h 0.38193 0.38194 v 0.38194 0.38194 h 0.38193 0.38193 v 0.38192 0.38194 h 0.38194 0.38193 v 0.38193 0.38194 h 0.76387 0.76386 v 0.38193 0.38193 h 2.2916 2.2916 z m -6.11093,-6.8748 v -0.38194 h 1.90967 1.90966 v -3.05546 -3.05547 h 0.38194 0.38193 v 3.4374 3.4374 h -2.2916 -2.2916 z m 15.54565,8.63225 c 0.002,-0.0387 0.01,-0.0466 0.0201,-0.02 0.01,0.024 0.008,0.0526 -0.003,0.0636 -0.011,0.011 -0.0189,-0.009 -0.0174,-0.0436 z m 0.001,-0.27123 c -0.003,-0.0576 0.0133,-0.0738 0.0709,-0.0709 0.0529,0.002 0.0584,0.008 0.0187,0.0186 -0.0309,0.008 -0.0627,0.0401 -0.0709,0.0708 -0.0105,0.0397 -0.0159,0.0343 -0.0186,-0.0186 z m 0.322036,-0.0642 c 0.024,-0.01 0.0526,-0.008 0.0637,0.002 0.011,0.011 -0.009,0.0189 -0.0436,0.0174 -0.0387,-0.002 -0.0466,-0.009 -0.0201,-0.02 z m -4.410916,-15.93549 v -0.38193 h 0.38193 0.38194 v 0.38193 0.38194 h -0.38194 -0.38193 z m -2.2916,-1.52773 v -0.38194 h 0.38194 0.38193 v -0.38193 -0.38194 h 0.38193 0.38193 v 0.38194 0.38193 h -0.38193 -0.38193 v 0.38194 0.38194 h -0.38192 -0.38194 z m 2.2916,0 v -0.38194 h 0.38193 0.38194 v 0.38194 0.38194 h -0.38194 -0.38193 z m 3.81934,0 v -0.38194 h -0.38194 -0.38193 v -0.38193 -0.38194 h -0.38193 -0.38194 v -0.38192 -0.38194 h -0.38193 -0.38193 v -0.38193 -0.38194 h 0.38193 0.38194 v 0.38194 0.38193 h 0.38193 0.38193 v 0.38194 0.38192 h 0.38193 0.38194 v 0.38194 0.38193 h 0.34872 0.348716 v 0.38194 0.38194 h -0.348716 -0.34872 z m -3.81934,-1.52773 v -0.38194 h 0.38193 0.38194 v 0.38194 0.38192 h -0.38194 -0.38193 z m 1.52774,-2.29161 v -0.38193 h 0.38193 0.38193 v -0.38193 -0.38194 h 0.38194 0.38193 v -0.38193 -0.38194 h 0.38193 0.38194 v 0.38194 0.38193 h -0.38194 -0.38193 v 0.38194 0.38193 h -0.38193 -0.38194 v 0.38193 0.38194 h -0.38193 -0.38193 z m -2.29161,-0.76386 v -0.38194 h 0.38194 0.38193 v 0.38194 0.38193 h -0.38193 -0.38194 z m -1.52773,-0.76387 v -0.38194 h 0.38194 0.38193 v 0.38194 0.38193 h -0.38192 -0.38194 z m -1.52773,-0.76386 v -0.381943 h 0.38193 0.38194 v 0.381943 0.38192 h -0.38194 -0.38193 z"
       id="path1142"
       sodipodi:nodetypes="ccccccccccccccccccccccccccccccccccccccccccccccccccccccccccccccccccccccccccccccccccccccccccccccccccccccccccccccccccccccccccccccccccccccccccccccccccccccccccccccccccccccccccccccccccccccccccccccccccccccccccccccccccccccccccccccccccccccccccccccccccccccccccccccccccccccccccccccccccccscsssscsssssscssccccccccccccccccccccccccccccccccccccccccccccccccccccccccccccccccccccccccccccccccccccccccccccccccccccccccccccccccccccccccccccccccc" />
  </g>
</svg>
