<?xml version="1.0" encoding="UTF-8" standalone="no"?>
<svg
   xmlns:dc="http://purl.org/dc/elements/1.1/"
   xmlns:cc="http://creativecommons.org/ns#"
   xmlns:rdf="http://www.w3.org/1999/02/22-rdf-syntax-ns#"
   xmlns:svg="http://www.w3.org/2000/svg"
   xmlns="http://www.w3.org/2000/svg"
   xmlns:sodipodi="http://sodipodi.sourceforge.net/DTD/sodipodi-0.dtd"
   xmlns:inkscape="http://www.inkscape.org/namespaces/inkscape"
   width="264.5835mm"
   height="55.963608mm"
   viewBox="0 0 264.5835 55.963608"
   version="1.1"
   id="svg21414"
   inkscape:version="1.0.1 (0767f8302a, 2020-10-17)"
   sodipodi:docname="inline-b-w-g-background-b.svg">
  <defs
     id="defs21408" />
  <sodipodi:namedview
     id="base"
     pagecolor="#ffffff"
     bordercolor="#666666"
     borderopacity="1.0"
     inkscape:pageopacity="0.0"
     inkscape:pageshadow="2"
     inkscape:zoom="0.35"
     inkscape:cx="822.85747"
     inkscape:cy="660.0437"
     inkscape:document-units="mm"
     inkscape:current-layer="layer1"
     inkscape:document-rotation="0"
     showgrid="false"
     fit-margin-top="0"
     fit-margin-left="0"
     fit-margin-right="0"
     fit-margin-bottom="0"
     inkscape:window-width="1880"
     inkscape:window-height="1043"
     inkscape:window-x="40"
     inkscape:window-y="0"
     inkscape:window-maximized="1" />
  <metadata
     id="metadata21411">
    <rdf:RDF>
      <cc:Work
         rdf:about="">
        <dc:format>image/svg+xml</dc:format>
        <dc:type
           rdf:resource="http://purl.org/dc/dcmitype/StillImage" />
        <dc:title></dc:title>
      </cc:Work>
    </rdf:RDF>
  </metadata>
  <g
     inkscape:label="Calque 1"
     inkscape:groupmode="layer"
     id="layer1"
     transform="translate(110.36913,26.469897)">
    <g
       id="g19927"
       transform="matrix(1.1750889,0,0,1.1750889,-853.70628,-526.22031)"
       inkscape:export-filename="/home/baptiste/Bureau/logos-png/inline/big/inline-b-w-g-big.png"
       inkscape:export-xdpi="200"
       inkscape:export-ydpi="200">
      <g
         id="g4262"
         transform="translate(-1.8979797,-3.189727)">
        <rect
           style="fill:#000000;fill-opacity:1;stroke:none;stroke-width:0.4;stroke-linecap:round;stroke-linejoin:round;stroke-miterlimit:4;stroke-dasharray:none;stroke-opacity:1;paint-order:stroke markers fill"
           id="rect36025-3-2-2-4-8-3-5-4-4-1"
           width="225.16042"
           height="47.625"
           x="634.47748"
           y="428.47705" />
        <path
           id="path13797_34_-6-5-8-4-3-0-6-1-0-5-9-7-2-15-9-6-8-8-6-0-2-0-4-0-4-6-0-8-1-4"
           style="display:inline;fill:#d4d4d4;fill-opacity:1;stroke:none;stroke-width:0.174;stroke-miterlimit:4;stroke-dasharray:none;stroke-opacity:1"
           d="m 699.47199,448.05656 c -0.8594,0 -1.5514,0.692 -1.5514,1.5513 v 1.2005 c 0,0.8593 0.692,1.5513 1.5514,1.5513 0.8593,0 1.5508,-0.692 1.5508,-1.5513 v -1.2005 c 0,-0.8593 -0.6915,-1.5513 -1.5508,-1.5513 z m -5.2002,0 c -1.1279,0 -1.4744,0.7652 -1.4744,1.9033 v 0.7079 c -1.0504,0 -1.2945,0.7379 -1.2945,1.8697 0,0.673 -0.014,1.3514 -0.014,2.019 -0.4222,0 -0.8254,-0.019 -1.2361,0.018 -0.2921,0.025 -0.5919,0.1005 -0.8098,0.3085 -0.6032,0.5212 -0.7075,1.5492 -0.155,2.1445 0.3606,0.4173 0.8763,0.5003 1.4744,0.5003 0.2694,0 0.4849,0 0.7503,0 -0.013,0.975 0,1.9507 -0.01,2.9259 0,1.4976 0,2.9951 -0.012,4.4928 -0.5512,0 -1.1159,-0.053 -1.6542,0.095 -0.545,0.1842 -0.8843,0.758 -0.9126,1.3157 -0.045,0.5656 0.2751,1.1452 0.7953,1.3823 0.3807,0.1593 0.8508,0.1592 1.2837,0.1592 1.7639,0 3.1526,-0.01 4.7878,-0.01 0.8301,0 1.2635,-0.7294 1.2635,-1.3736 0,-1.0525 -0.5345,-1.5818 -1.2635,-1.5818 0,-2.4664 0,-4.9521 0,-7.4223 0.3998,0 1.171,-5.3e-4 1.171,-5.3e-4 0.8454,0 1.3348,-0.4755 1.3348,-1.5043 0,-0.9444 -0.597,-1.4511 -1.3384,-1.4511 -0.2014,-7.9e-4 -0.9661,-0.01 -1.1674,0 v -3.52657 c 0.9668,0 1.2087,-1.0257 1.2087,-1.6289 0,-0.7339 -0.4491,-1.341 -1.1576,-1.341 z"
           sodipodi:nodetypes="ssssssscscccccccccccccccscccscccscc" />
        <path
           id="path13820_2_-0-0-8-6-2-8-3-9-2-5-8-1-4-3-96-7-5-2-9-6-7-2-7-7-8"
           style="display:inline;fill:#d4d4d4;fill-opacity:1;stroke-width:0.264583"
           d="m 667.52779,446.64126 c -0.7064,0.024 -1.4158,-0.025 -2.1205,0.03 -0.4613,0.084 -0.8411,0.4692 -0.9481,0.9216 -0.3973,0.011 -0.8168,-0.057 -1.1932,0.1029 -0.3562,0.1538 -0.6204,0.4888 -0.7005,0.8668 -0.4682,0.084 -0.8457,0.4854 -0.9452,0.944 -0.6019,0.1082 -1.0302,0.7295 -0.972,1.3291 0,0.1883 0.01,0.3767 0.01,0.565 -0.6006,0.1194 -1.0169,0.7508 -0.9473,1.3494 0.012,1.2459 -0.017,2.4932 0.021,3.7382 0.07,0.4764 0.4639,0.8731 0.9277,0.9821 0.01,0.4474 -0.069,0.9352 0.1764,1.3373 0.1705,0.2856 0.4712,0.4834 0.793,0.556 0.083,0.4686 0.4856,0.8455 0.9441,0.9459 0.1093,0.6077 0.7434,1.0397 1.3483,0.9686 1.8623,-0.01 3.7254,0.015 5.5872,-0.017 0.4872,-0.067 0.8941,-0.4686 1.0024,-0.943 0.5055,-0.042 0.9341,-0.4665 1.0386,-0.9555 0.6076,-0.1092 1.0387,-0.7428 0.9696,-1.3472 0.011,-0.1797 -0.021,-0.3821 0.01,-0.5483 0.5969,-0.1259 1.0087,-0.7542 0.9385,-1.3512 -0.01,-1.5539 0.015,-3.1086 -0.018,-4.662 -0.065,-0.4919 -0.474,-0.9046 -0.9551,-1.0053 -0.085,-0.4681 -0.4864,-0.8453 -0.9452,-0.9452 -0.084,-0.4678 -0.4853,-0.8441 -0.9433,-0.9441 -0.1097,-0.6071 -0.7417,-1.0373 -1.3458,-0.9703 -0.1829,-0.01 -0.3658,0.01 -0.5487,0 -0.1083,-0.5395 -0.6311,-0.9438 -1.1749,-0.9518 z m -0.832,3.181 c 0.2869,0.3167 0.7329,0.4543 1.1517,0.4035 0.1418,0 0.2837,0 0.4255,0 0.014,0.4076 -0.064,0.8437 0.1314,1.2214 0.1526,0.326 0.4695,0.5555 0.8149,0.64 -0.01,1.6825 0,3.365 -0.01,5.0476 -0.4559,0.095 -0.819,0.4899 -0.917,0.9396 -0.4598,0.082 -0.8298,0.4713 -0.9386,0.9181 -0.4532,-0.01 -0.9064,0.01 -1.3596,0 -0.098,-0.4473 -0.474,-0.8094 -0.9166,-0.9137 -0.011,-0.4392 0.069,-0.9148 -0.1634,-1.3137 -0.1627,-0.2921 -0.4618,-0.494 -0.7822,-0.5755 0.01,-1.6817 0,-3.3634 0.01,-5.045 0.4477,-0.097 0.8049,-0.4779 0.9137,-0.9159 0.4382,-0.013 0.9164,0.071 1.3127,-0.1645 0.1158,-0.069 0.2214,-0.1557 0.3092,-0.2583 l 0.012,0.014 z" />
        <path
           id="path13791_32_-7-9-9-5-6-8-72-7-7-6-4-3-6-0-1-9-7-7-0-2-6-1-2-0-1-5-9-0-57-9"
           style="display:inline;opacity:0.998;fill:#d4d4d4;fill-opacity:1;stroke-width:0.373986;enable-background:new"
           d="m 653.98149,446.61726 c -0.5331,0.034 -1.0735,-0.04 -1.6019,0.051 -0.5787,0.1432 -1.0198,0.6894 -1.0651,1.2801 -0.3364,0.01 -0.6509,0.1634 -0.8867,0.401 a 0.39265214,0.7004708 0 0 0 -0.2734,-0.1974 0.39265214,0.7004708 0 0 0 -0.3183,0.2909 c -0.2733,-0.3129 -0.6834,-0.5007 -1.1018,-0.4878 -0.9356,0.014 -1.8721,-0.018 -2.8076,0.019 -0.8039,0.1147 -1.3907,1.0301 -1.1193,1.8045 0.1604,0.5537 0.7004,0.9477 1.2573,1.0041 -0.017,0.4326 0,0.8676 -0.01,1.3012 0,2.1346 0,4.2692 -0.01,6.4038 -0.5972,0.01 -1.1133,0.4936 -1.2614,1.0567 -0.1816,0.6208 0.1636,1.3219 0.741,1.5958 0.2828,0.1506 0.6092,0.1803 0.9235,0.153 1.2889,-0.01 2.5788,0.017 3.8669,-0.018 0.8245,-0.1085 1.4131,-1.0674 1.1075,-1.848 -0.176,-0.528 -0.6928,-0.9077 -1.2424,-0.9544 0.017,-0.4836 2e-4,-0.9697 0.01,-1.4542 0,-1.6492 0,-3.3024 -0.01,-4.9491 0.6774,-0.043 1.2839,-0.6284 1.3158,-1.3126 0.817,7.9e-4 1.6362,-0.011 2.452,0.01 -0.017,0.4506 0,0.9035 -0.01,1.355 10e-5,2.1158 0,4.2316 -0.01,6.3474 -0.6619,0.01 -1.2219,0.59139 -1.3022,1.232 -0.09,0.6297 0.3231,1.2704 0.9162,1.4836 0.3499,0.1537 0.7348,0.076 1.1033,0.092 1.6179,0 3.2366,0.012 4.8539,-0.016 0.8245,-0.1024 1.4204,-1.0564 1.1209,-1.8386 -0.2024,-0.6389 -0.8981,-1.0421 -1.5534,-0.9638 -0.3344,-0.012 -0.6822,0.025 -1.0082,-0.013 0.018,-0.53661 0,-1.075 0.01,-1.6123 0,-2.5464 0.01,-5.0932 -0.011,-7.6393 -0.065,-0.7533 -0.828,-1.3436 -1.572,-1.2537 -0.3524,-0.01 -0.7133,0.019 -1.0604,-0.012 -0.014,-0.5967 -0.4965,-1.115 -1.0614,-1.2609 -0.1266,-0.035 -0.2586,-0.049 -0.3897,-0.048 z m -5.165,3.3683 v 0 a 0.79180719,0.79179259 0 0 1 0.011,0 0.79180719,0.79179259 0 0 1 0.7917,0.7917 0.79180719,0.79179259 0 0 1 -0.7917,0.7917 0.79180719,0.79179259 0 0 1 -0.7917,-0.7917 0.79180719,0.79179259 0 0 1 0.7793,-0.7917 z" />
        <path
           id="path13791_32_-7-9-9-5-6-8-72-3-1-4-1-64-6-0-78-2-6-6-85-0-1-6-4-5-3-4-8-16-6"
           style="display:inline;opacity:0.998;fill:#d4d4d4;fill-opacity:1;stroke-width:0.373986;enable-background:new"
           d="m 778.15899,443.63406 c -0.5337,0.034 -1.0749,-0.04 -1.604,0.052 -0.5787,0.1431 -1.0198,0.6888 -1.0651,1.2795 -0.5349,0.01 -1.0148,0.4034 -1.2102,0.8893 -0.033,0.026 -0.072,-0.1494 -0.1225,-0.1979 -0.2556,-0.4305 -0.7469,-0.7001 -1.2475,-0.6847 -0.9356,0.014 -1.8722,-0.018 -2.8076,0.019 -0.8039,0.1147 -1.3907,1.0301 -1.1193,1.8045 0.1604,0.5537 0.7004,0.9482 1.2573,1.0046 -0.017,0.4326 0,0.8671 -0.01,1.3007 0,2.1346 0,4.2692 -0.01,6.4038 -0.5972,0.01 -1.1133,0.4936 -1.2614,1.0567 -0.1816,0.6208 0.1636,1.3219 0.741,1.5958 0.2827,0.1506 0.6093,0.1808 0.9235,0.1535 1.2888,-0.01 2.5788,0.016 3.8669,-0.018 0.8245,-0.10851 1.4131,-1.06741 1.1074,-1.848 -0.1759,-0.52801 -0.6927,-0.9077 -1.2422,-0.95441 0.017,-0.4836 1e-4,-0.96909 0.01,-1.45369 0,-1.6491 0,-3.3023 -0.01,-4.949 0.6773,-0.043 1.2837,-0.629 1.3156,-1.3131 0.8171,7.9e-4 1.6363,-0.01 2.4521,0.01 -0.017,0.4505 0,0.9029 -0.01,1.3544 1e-4,2.1158 0,4.2317 0,6.3474 -0.6619,0.01 -1.2213,0.59139 -1.3017,1.23199 -0.09,0.6297 0.3232,1.27041 0.9162,1.4836 0.3499,0.1537 0.7348,0.077 1.1033,0.092 1.6179,0 3.2367,0.012 4.8539,-0.016 0.8246,-0.1024 1.4204,-1.0559 1.1209,-1.8381 -0.2023,-0.6389 -0.8986,-1.0426 -1.5539,-0.9643 -0.3344,-0.012 -0.6817,0.025 -1.0077,-0.013 0.019,-0.5365 0,-1.0745 0.01,-1.6118 0,-2.5464 0.01,-5.0937 -0.011,-7.6398 -0.065,-0.7533 -0.828,-1.3431 -1.572,-1.2532 -0.3524,-0.01 -0.7133,0.019 -1.0604,-0.012 -0.014,-0.5967 -0.4965,-1.1155 -1.0614,-1.2614 -0.1273,-0.035 -0.26,-0.049 -0.3918,-0.048 z" />
        <path
           id="path13840_2_-6-5-8-2-1-1-6-59-1-6-5-8-7-3-0-4-0-6-5-3-6-98-7"
           style="display:inline;fill:#d4d4d4;fill-opacity:1;stroke-width:0.264583"
           d="m 792.08729,443.63916 c -0.6969,0.024 -1.396,-0.019 -2.0918,0.028 -0.4714,0.084 -0.8616,0.4725 -0.9757,0.9333 -0.4305,0.01 -0.9006,-0.07 -1.2877,0.1669 -0.2999,0.1722 -0.5116,0.4768 -0.5902,0.8113 -0.4707,0.088 -0.846,0.4918 -0.9519,0.9514 -0.6277,0.117 -1.0588,0.7815 -0.9782,1.403 0,0.1577 0.01,0.3157 0,0.4734 -0.6086,0.1285 -1.0283,0.7707 -0.957,1.3792 0.011,1.2419 -0.015,2.4847 0.02,3.7259 0.073,0.4827 0.469,0.8848 0.9379,1.0004 0.01,0.428 -0.07,0.8932 0.1622,1.2795 0.1675,0.3074 0.4795,0.5168 0.8155,0.5985 0.088,0.4712 0.4925,0.8452 0.9514,0.9529 0.1154,0.6136 0.7524,1.0399 1.3627,0.9818 1.5715,-0.018 3.1436,0.012 4.7149,-0.02 0.4985,-0.07 0.9116,-0.4823 1.0232,-0.9668 0.4863,-0.089 0.8668,-0.518 0.9566,-0.9953 0.6531,-0.1724 1.0804,-0.9412 0.8438,-1.5824 -0.2167,-0.6548 -1.0491,-1.0434 -1.6753,-0.7198 -0.3478,0.1625 -0.6085,0.4944 -0.6909,0.8687 -1.0532,-8e-4 -2.1065,0.01 -3.1595,-0.01 -0.1001,-0.4561 -0.4966,-0.8136 -0.9447,-0.9178 -0.087,-0.4606 -0.4754,-0.8329 -0.9245,-0.9447 0,-0.5764 0.014,-1.1537 -0.011,-1.7296 -0.01,-0.2052 -0.077,-0.4056 -0.1958,-0.5736 2.5215,-8e-4 5.0436,7.9e-4 7.5649,0.01 0.6231,-0.073 1.1055,-0.7051 1.019,-1.3255 -0.012,-0.477 0.082,-1.0055 -0.1974,-1.4283 -0.1736,-0.264 -0.4506,-0.455 -0.7555,-0.5343 -0.01,-0.4263 0.07,-0.8898 -0.1597,-1.2749 -0.1689,-0.3067 -0.4781,-0.5249 -0.8175,-0.602 -0.1138,-0.6137 -0.7514,-1.0429 -1.3617,-0.9829 -0.1485,0 -0.3139,0.019 -0.4532,-6.1e-4 -0.1192,-0.5413 -0.6486,-0.9437 -1.1963,-0.953 z m 0.3789,4.2613 c 0.1028,0.06 0.2133,0.1074 0.3281,0.1369 0,0.1341 0,0.2685 0.01,0.4026 -0.2277,0 -0.4562,-2.9e-4 -0.6842,-6.1e-4 a 2.1737354,1.7453755 0 0 0 0.3504,-0.5389 z" />
        <path
           id="path13801_13_-3-9-4-8-5-8-8-2-4-8-83-2-0-8-4-0-8-1-1-1-6-5-2-1-7"
           style="display:inline;opacity:0.998;fill:#d4d4d4;fill-opacity:1;stroke-width:0.264583;enable-background:new"
           d="m 801.03769,440.76856 v 0 c -0.6816,-0.01 -1.2871,0.6231 -1.2506,1.3038 -0.062,0.129 -0.2384,0.047 -0.3488,0.092 -0.5948,0.1049 -1.0535,0.6892 -1.0252,1.2903 -0.093,0.1163 -0.2659,0.037 -0.3912,0.089 -0.6401,0.1379 -1.0943,0.833 -0.955,1.4749 0.095,0.6029 0.6858,1.0684 1.2919,1.0407 0.1183,0.088 0.034,0.259 0.058,0.3825 0,3.5915 0,7.1836 0.01,10.775 0.051,0.6704 0.7195,1.2025 1.3829,1.1286 1.3914,-0.01 2.7837,0.015 4.1744,-0.014 0.7079,-0.082 1.2242,-0.8573 1.0449,-1.5436 -0.1246,-0.6124 -0.7579,-1.0542 -1.3751,-0.9854 -0.4282,-0.01 -0.8612,0.02 -1.2862,-0.017 -0.082,-0.1458 -0.012,-0.3267 -0.035,-0.4868 0,-2.632 0,-5.2642 -0.01,-7.8962 0.4275,0.021 0.8566,0 1.2847,0.01 0.3546,0.01 0.7359,-0.042 1.0077,-0.2925 0.4477,-0.3689 0.5969,-1.0537 0.3152,-1.5664 -0.2462,-0.4778 -0.805,-0.7519 -1.3343,-0.6851 -0.4241,0.01 -0.8484,-0.013 -1.2723,0.01 0.019,-0.3986 0,-0.7982 0.01,-1.1973 -0.01,-0.6282 0.018,-1.2589 -0.023,-1.8853 -0.097,-0.5933 -0.6749,-1.0434 -1.2702,-1.0268 z" />
        <ellipse
           style="fill:#d4d4d4;fill-opacity:1;stroke:none;stroke-width:1;stroke-linecap:round;stroke-linejoin:round;stroke-miterlimit:4;stroke-dasharray:none;stroke-opacity:1;paint-order:stroke markers fill"
           id="path4982-0-8-0-7-6-9-9-4-4-9-4-5-2-3-7-2-1-4-33-3"
           cx="766.12787"
           cy="456.81433"
           rx="1.3909618"
           ry="1.390936" />
        <path
           id="path13799_15_-3-9-1-1-4-1-1-1-9-6-5-2-5-5-0-8-7-2-9-7-7-3-7"
           style="display:inline;opacity:0.998;fill:#d4d4d4;fill-opacity:1;stroke:none;stroke-width:0.174;stroke-miterlimit:4;stroke-dasharray:none;stroke-opacity:1;enable-background:new"
           d="m 714.26799,450.28726 c -0.9527,0.01 -1.9065,-0.013 -2.8585,0.012 -0.6668,0.086 -1.175,0.7828 -1.0501,1.4443 0.083,0.6064 0.6687,1.0926 1.28,1.0616 0.1224,0.075 0.039,0.2442 0.063,0.36 0,2.1764 0.01,4.3538 -0.01,6.5295 -0.1039,0.1025 -0.2733,0.029 -0.401,0.085 -0.5593,0.1297 -0.9768,0.6893 -0.9509,1.2612 -0.087,0.1169 -0.2559,0.034 -0.3777,0.058 -0.8226,0 -1.6501,0.012 -2.4697,-0.014 -0.089,-0.1284 -0.016,-0.2992 -0.039,-0.4454 0,-3.077 0.01,-6.1544 -0.01,-9.2312 -0.055,-0.667 -0.7282,-1.185 -1.3857,-1.106 -0.9317,0.01 -1.8651,-0.022 -2.7956,0.021 -0.6708,0.1052 -1.1519,0.8333 -0.9973,1.4924 0.1055,0.5855 0.6828,1.0336 1.2743,1.0066 0.1163,0.088 0.034,0.2559 0.058,0.378 0,2.6563 -0.01,5.3129 0.01,7.969 0.054,0.6348 0.6671,1.1398 1.2957,1.1121 0.1063,0.1051 0.031,0.2763 0.087,0.4068 0.1423,0.5905 0.7564,1.0117 1.3581,0.9424 1.3676,0 2.7362,0.012 4.1031,-0.014 0.6299,-0.073 1.119,-0.6966 1.0729,-1.3226 0.06,-0.1011 0.1964,-0.027 0.1802,0.079 -0.013,0.5201 0.3631,0.9999 0.8498,1.1611 0.3349,0.1208 0.695,0.044 1.042,0.064 0.7646,0 1.5309,0.018 2.2943,-0.02 0.6737,-0.1058 1.1556,-0.8402 0.9951,-1.5013 -0.1094,-0.5813 -0.6834,-1.0238 -1.2713,-0.9976 -0.1178,-0.086 -0.034,-0.2563 -0.059,-0.378 0,-3.0981 0.01,-6.1963 -0.01,-9.2942 -0.049,-0.6334 -0.649,-1.1542 -1.282,-1.1203 z" />
        <path
           id="path13805_13_-5-7-4-6-2-3-3-4-2-4-8-9-9-3-9-6-8-4-2-1-4-9-7-1"
           style="display:inline;opacity:0.998;fill:#d4d4d4;fill-opacity:1;stroke-width:0.264583;enable-background:new"
           d="m 750.47149,439.11756 c -0.4964,0.018 -0.9947,-0.016 -1.4903,0.018 -0.6622,0.053 -1.1998,0.6579 -1.2363,1.3107 -0.528,0 -1.0088,0.3847 -1.2083,0.863 -0.2217,-0.5597 -0.8231,-0.9407 -1.4251,-0.8891 -0.9148,0.014 -1.831,-0.017 -2.7448,0.02 -0.7549,0.1081 -1.3147,0.9211 -1.1435,1.6653 0.1121,0.6114 0.6765,1.0986 1.2951,1.1337 -0.01,1.1622 0,2.3265 0,3.4895 0,1.3997 0,2.8033 -0.01,4.2006 -0.6389,0 -1.1882,0.551 -1.2926,1.1658 -0.099,0.5439 0.1628,1.1274 0.6345,1.416 0.289,0.1944 0.6459,0.2551 0.9881,0.2223 1.7408,-0.01 3.4826,0.015 5.2229,-0.016 0.7958,-0.094 1.3743,-0.9844 1.1414,-1.7504 -0.1657,-0.6615 -0.8671,-1.1126 -1.5373,-1.0327 -0.3465,-0.01 -0.6932,0.011 -1.0395,-0.01 0.017,-0.5173 0,-1.0361 0.01,-1.5541 0,-1.6106 0,-3.2212 0.01,-4.8318 0.6582,-0.01 1.2254,-0.584 1.3019,-1.2247 -0.015,-0.1106 0.1289,-0.061 0.2012,-0.096 0.3817,-0.085 0.7253,-0.3335 0.922,-0.6722 0.01,0.4465 -0.048,0.9322 0.2014,1.3294 0.288,0.4818 0.8753,0.7395 1.4266,0.6726 0.5135,-0.016 1.0393,0.054 1.5429,-0.072 0.6267,-0.2042 1.0288,-0.8891 0.9449,-1.5361 -0.017,-0.5167 0.054,-1.0455 -0.07,-1.5524 -0.1723,-0.5346 -0.6981,-0.9217 -1.2545,-0.9571 -0.01,-0.6592 -0.5822,-1.2304 -1.2256,-1.3057 -0.052,-0.01 -0.1047,-0.01 -0.1569,-0.011 z" />
        <path
           id="path13801_13_-3-9-4-8-3-6-7-3-1-8-1-6-5-6-8-2-4-9-1-9-2-3-3-9-2"
           style="display:inline;opacity:0.998;fill:#d4d4d4;fill-opacity:1;stroke-width:0.264583;enable-background:new"
           d="m 720.41579,442.33436 v 5e-4 c -0.6816,-0.01 -1.2876,0.6236 -1.2511,1.3044 -0.062,0.129 -0.2379,0.047 -0.3483,0.092 -0.5949,0.1049 -1.0535,0.6892 -1.0253,1.2903 -0.093,0.1163 -0.2664,0.037 -0.3917,0.089 -0.6401,0.1379 -1.0943,0.833 -0.955,1.4749 0.095,0.6029 0.6859,1.0684 1.2919,1.0407 0.1184,0.088 0.035,0.259 0.059,0.3824 0,3.5916 0,7.1837 0.01,10.7751 0.051,0.6704 0.72,1.202 1.3834,1.1281 1.3914,-0.01 2.7836,0.015 4.1744,-0.014 0.7079,-0.082 1.2237,-0.8568 1.0444,-1.5431 -0.1246,-0.6125 -0.7575,-1.0542 -1.3746,-0.9854 -0.4282,-0.01 -0.8617,0.02 -1.2868,-0.016 -0.082,-0.1458 -0.012,-0.3267 -0.035,-0.4868 0,-2.632 0,-5.2642 -0.01,-7.8962 0.4276,0.021 0.8566,0 1.2847,0.01 0.3546,0.01 0.7359,-0.042 1.0077,-0.2925 0.4478,-0.3689 0.597,-1.0537 0.3152,-1.5663 -0.2462,-0.4778 -0.8049,-0.752 -1.3342,-0.6852 -0.4242,0.01 -0.8485,-0.013 -1.2723,0.01 0.019,-0.3986 0,-0.7982 0.01,-1.1974 -0.01,-0.6281 0.018,-1.2588 -0.023,-1.8851 -0.097,-0.5934 -0.6744,-1.0435 -1.2697,-1.0268 z" />
        <path
           id="path13799_15_-3-9-1-1-4-1-1-1-6-9-4-0-4-6-7-6-2-1-2-7-1-9-8-2"
           style="display:inline;opacity:0.998;fill:#d4d4d4;fill-opacity:1;stroke:none;stroke-width:0.174;stroke-miterlimit:4;stroke-dasharray:none;stroke-opacity:1;enable-background:new"
           d="m 737.55129,443.90646 c -0.9527,0.01 -1.9065,-0.013 -2.8585,0.012 -0.6668,0.086 -1.175,0.7829 -1.0502,1.4444 0.083,0.6063 0.6687,1.0926 1.28,1.0615 0.1225,0.075 0.039,0.2442 0.063,0.36 0,2.1765 0.01,4.3537 -0.01,6.5296 -0.104,0.1024 -0.2732,0.029 -0.4009,0.085 -0.5593,0.1296 -0.9768,0.6893 -0.951,1.2612 -0.087,0.1169 -0.2558,0.034 -0.3776,0.058 -0.8227,0 -1.6501,0.012 -2.4697,-0.014 -0.089,-0.1285 -0.016,-0.2993 -0.039,-0.4454 0,-3.0771 0.01,-6.1545 -0.01,-9.2313 -0.055,-0.667 -0.7282,-1.185 -1.3858,-1.106 -0.9317,0.01 -1.8651,-0.022 -2.7956,0.021 -0.6708,0.1052 -1.1519,0.8333 -0.9972,1.4924 0.1055,0.5855 0.6827,1.0336 1.2742,1.0066 0.1163,0.088 0.034,0.2559 0.058,0.378 0,2.6563 -0.01,5.3129 0.01,7.969 0.054,0.6348 0.6672,1.1398 1.2957,1.1121 0.1063,0.1052 0.031,0.2763 0.087,0.4068 0.1423,0.5905 0.7565,1.0117 1.3581,0.9424 1.3676,0 2.7363,0.012 4.1031,-0.014 0.63,-0.073 1.1191,-0.6966 1.07289,-1.3225 0.06,-0.1012 0.19651,-0.027 0.1802,0.079 -0.013,0.52 0.3631,0.9999 0.84981,1.161 0.3349,0.1208 0.695,0.044 1.04199,0.064 0.7646,0 1.5309,0.018 2.2944,-0.02 0.67371,-0.1057 1.1556,-0.8402 0.995,-1.5012 -0.1094,-0.5814 -0.6834,-1.0238 -1.27119,-0.9977 -0.11791,-0.086 -0.034,-0.2563 -0.059,-0.378 0,-3.098 0.01,-6.1963 -0.01,-9.2941 -0.049,-0.6335 -0.649,-1.1543 -1.2821,-1.1204 z" />
        <path
           id="rect10916-0-6-6-8-6-0-3-0-3-5-2-8-3-8-0-4-2-6-1"
           style="fill:#d4d4d4;fill-opacity:1;stroke:none;stroke-width:0.373999;stroke-linecap:round;stroke-linejoin:round;stroke-miterlimit:4;stroke-dasharray:none;stroke-opacity:1;paint-order:stroke markers fill"
           d="m 758.64579,436.99056 c -1.0307,0 -1.8604,0.8303 -1.8604,1.8619 0,0.2398 0.046,0.4681 0.128,0.6783 h -0.2677 c -1.0307,0 -1.8603,0.8303 -1.8603,1.8619 0,1.0316 0.8296,1.8619 1.8603,1.8619 h 0.6937 c -0.06,0.1828 -0.093,0.3776 -0.093,0.5807 0,1.0316 0.8301,1.8625 1.8608,1.8625 h 2.4513 c 0.3178,0 0.5421,0.3215 0.539,0.6752 0,0.2441 0.048,0.4764 0.1321,0.6896 -0.1796,-0.058 -0.3709,-0.089 -0.57,-0.089 h -5.0027 c -1.0307,0 -1.8603,0.8303 -1.8603,1.8619 0,1.0316 0.8296,1.8625 1.8603,1.8625 h 5.0027 c 1.0307,0 1.8604,-0.8309 1.8604,-1.8625 0,-0.244 -0.048,-0.4759 -0.1326,-0.6891 0.1797,0.058 0.3712,0.089 0.5704,0.089 h 0.1573 c 1.0308,0 1.8604,-0.8309 1.8604,-1.8624 0,-1.0316 -0.8296,-1.862 -1.8604,-1.862 -0.3727,0 -0.6045,-0.3832 -0.6137,-0.6803 0,-8e-4 0,-8e-4 0,0 0,-1.0284 -0.8319,-1.8552 -1.8604,-1.8552 h -2.376 c 2e-4,-8e-4 2e-4,-8e-4 0,0 -0.016,7.9e-4 -0.033,0 -0.049,0 -0.347,10e-5 -0.6285,-0.2814 -0.6287,-0.6288 -1e-4,-0.3475 0.2815,-0.6293 0.6287,-0.6292 0,10e-5 0.01,2e-4 0.014,5e-4 -2e-4,-2e-4 -2e-4,-7.9e-4 0,-7.9e-4 h 4.962 c 1.0307,0 1.8603,-0.8308 1.8603,-1.8624 0,-1.0316 -0.8296,-1.8619 -1.8603,-1.8619 z"
           sodipodi:nodetypes="sscssscsscccsssssscssscccscccccccssss" />
        <path
           id="rect10916-0-6-6-8-6-0-3-9-8-8-1-5-8-0-1-9-6-8-70-5"
           style="fill:#d4d4d4;fill-opacity:1;stroke:none;stroke-width:0.373999;stroke-linecap:round;stroke-linejoin:round;stroke-miterlimit:4;stroke-dasharray:none;stroke-opacity:1;paint-order:stroke markers fill"
           d="m 678.55009,447.42276 c -1.0307,0 -1.8603,0.8304 -1.8603,1.862 0,0.2398 0.046,0.468 0.1279,0.6782 h -0.2677 c -1.0307,0 -1.8603,0.8304 -1.8603,1.8619 0,1.0316 0.8296,1.862 1.8603,1.862 h 0.6937 c -0.06,0.1827 -0.093,0.3775 -0.093,0.5807 0,1.0316 0.8301,1.8624 1.8608,1.8624 h 2.4513 c 0.3179,0 0.5421,0.3215 0.539,0.6752 0,0.2441 0.047,0.4764 0.1321,0.6897 -0.1796,-0.057 -0.3708,-0.089 -0.5699,-0.089 h -5.0028 c -1.0307,0 -1.8603,0.8303 -1.8603,1.8619 0,1.0316 0.8296,1.8624 1.8603,1.8624 h 5.0028 c 1.0307,0 1.8603,-0.8308 1.8603,-1.8624 0,-0.2441 -0.048,-0.4759 -0.1326,-0.6891 0.1797,0.058 0.3712,0.089 0.5705,0.089 h 0.1573 c 1.0306,0 1.8603,-0.8309 1.8603,-1.8625 0,-1.0316 -0.8297,-1.8619 -1.8603,-1.8619 -0.3727,0 -0.6045,-0.3832 -0.6138,-0.6803 0,-8e-4 -5.3e-4,-8e-4 -5.3e-4,0 0,-1.0285 -0.8319,-1.8552 -1.8603,-1.8552 h -2.3761 c 2e-4,-8e-4 2e-4,-8e-4 5.3e-4,0 -0.016,7.9e-4 -0.033,0 -0.049,0 -0.347,1e-4 -0.6285,-0.2814 -0.6287,-0.6288 -10e-5,-0.3475 0.2815,-0.6293 0.6287,-0.6292 0,10e-5 0.01,2e-4 0.013,5e-4 -10e-5,-2e-4 -2e-4,-7.9e-4 -5.3e-4,-7.9e-4 h 4.9621 c 1.0306,0 1.8602,-0.8308 1.8602,-1.8624 0,-1.0316 -0.8296,-1.8619 -1.8602,-1.8619 z"
           sodipodi:nodetypes="sscssscsscccsssssscssscccscccccccssss" />
        <flowRoot
           xml:space="preserve"
           id="flowRoot5416-8-4-7-3-8-5-1-5-2-2-1-0-8-8-8-3-2-3-9-3-4-0"
           style="font-style:normal;font-variant:normal;font-weight:500;font-stretch:normal;font-size:8.46667px;line-height:98%;font-family:'CMU Typewriter Text';-inkscape-font-specification:'CMU Typewriter Text, Medium';font-variant-ligatures:normal;font-variant-caps:normal;font-variant-numeric:normal;font-feature-settings:normal;text-align:start;letter-spacing:0.0486875px;word-spacing:0px;writing-mode:lr-tb;text-anchor:start;fill:#ffffff;fill-opacity:1;stroke:none;stroke-width:0.303268px;stroke-linecap:butt;stroke-linejoin:miter;stroke-opacity:1"
           transform="matrix(0.87244055,0,0,0.87244055,1324.5072,302.78525)"><flowRegion
             id="flowRegion5418-6-1-3-6-9-9-4-62-9-5-7-48-9-6-6-2-4-6-4-0-8-9"
             style="fill:#ffffff;fill-opacity:1;stroke-width:0.303268px"><rect
               id="rect5420-8-9-4-7-7-77-2-9-3-4-2-8-3-2-8-1-7-0-2-1-4-0"
               width="131.76186"
               height="95.862648"
               x="-590.99011"
               y="164.6246"
               style="fill:#ffffff;fill-opacity:1;stroke-width:1.14622" /></flowRegion><flowPara
             style="font-style:normal;font-variant:normal;font-weight:500;font-stretch:normal;font-size:8.46667px;font-family:Oswald;-inkscape-font-specification:'Oswald Medium';fill:#ffffff;fill-opacity:1;stroke-width:0.303268px"
             id="flowPara11975-2-9-4-7-8-6-8-3-7-8-6-2-7-81-4">DOCUMENTER </flowPara><flowPara
             style="font-style:normal;font-variant:normal;font-weight:500;font-stretch:normal;font-size:8.46667px;font-family:Oswald;-inkscape-font-specification:'Oswald Medium';fill:#ffffff;fill-opacity:1;stroke-width:0.303268px"
             id="flowPara1519-2-9-8-4-8-5-6-2-6-8-6-0">DEMAIN</flowPara></flowRoot>
        <path
           id="path13791_32_-7-9-9-5-6-8-72-7-7-9-4-0-3-2-7-4-2-1-7-7-1-4-7-3-54-7-1-1-9-8-1"
           style="display:inline;fill:#ffffff;fill-opacity:1;stroke:#000000;stroke-width:0.174;stroke-miterlimit:4;stroke-dasharray:none;stroke-opacity:1;enable-background:new"
           d="m 654.95939,445.17796 c -0.5339,0.034 -1.0754,-0.04 -1.6047,0.052 -0.5787,0.1432 -1.0197,0.6889 -1.065,1.2796 -0.5349,0.01 -1.0148,0.4033 -1.2102,0.8893 -0.034,0.026 -0.072,-0.1493 -0.1222,-0.1978 -0.2556,-0.4305 -0.7471,-0.6999 -1.2477,-0.6845 -0.9357,0.014 -1.8722,-0.018 -2.8077,0.018 -0.8039,0.1147 -1.3907,1.0301 -1.1192,1.8045 0.1603,0.5537 0.7007,0.9481 1.2576,1.0045 -0.017,0.4326 5e-4,0.8673 -0.01,1.3009 5e-4,2.1345 0,4.2693 -0.01,6.4038 -0.5972,0.01 -1.1136,0.4935 -1.2617,1.0566 -0.1816,0.6207 0.1637,1.3219 0.7411,1.5958 0.2827,0.1506 0.6091,0.1807 0.9234,0.1534 1.2888,-0.01 2.5789,0.017 3.8671,-0.018 0.8244,-0.1085 1.4132,-1.0673 1.1075,-1.8479 -0.176,-0.528 -0.6929,-0.90781 -1.2425,-0.95461 0.017,-0.48349 5e-4,-0.96929 0.01,-1.45379 10e-4,-1.6492 -7.9e-4,-3.3022 -0.01,-4.9489 0.6773,-0.043 1.2837,-0.6288 1.3156,-1.313 0.817,7.9e-4 1.6363,-0.011 2.4521,0.01 -0.017,0.4505 -1e-4,0.9033 -0.01,1.3548 1e-4,2.1158 0,4.2316 -0.01,6.34739 -0.662,0.01 -1.2216,0.5913 -1.302,1.2319 -0.09,0.62961 0.323,1.27031 0.916,1.4835 0.35,0.15371 0.7351,0.076 1.1035,0.092 1.6179,0 3.2368,0.012 4.854,-0.016 0.8245,-0.1024 1.4203,-1.056 1.1208,-1.8384 -0.2024,-0.6389 -0.8984,-1.0424 -1.5537,-0.964 -0.3344,-0.012 -0.6818,0.025 -1.0078,-0.013 0.018,-0.5366 5e-4,-1.0747 0.01,-1.612 -10e-4,-2.5464 0.01,-5.0932 -0.011,-7.6394 -0.065,-0.7533 -0.828,-1.3435 -1.572,-1.2536 -0.3524,-0.01 -0.7132,0.02 -1.0602,-0.012 -0.014,-0.5967 -0.4968,-1.1153 -1.0617,-1.2612 -0.1274,-0.035 -0.2603,-0.049 -0.3922,-0.048 z m -5.1673,3.3685 a 0.79180719,0.79179256 0 0 1 0.012,0 0.79180719,0.79179256 0 0 1 0.7917,0.7917 0.79180719,0.79179256 0 0 1 -0.7917,0.7917 0.79180719,0.79179256 0 0 1 -0.7917,-0.7917 0.79180719,0.79179256 0 0 1 0.7803,-0.7917 z" />
        <path
           id="path13820_2_-0-0-8-6-2-8-6-0-05-2-1-2-5-8-8-7-3-2-3-2-7-8-2-1-5-3"
           style="display:inline;fill:#ffffff;fill-opacity:1;stroke:#000000;stroke-width:0.174;stroke-miterlimit:4;stroke-dasharray:none;stroke-opacity:1"
           d="m 668.48019,445.20526 c -0.7064,0.024 -1.4157,-0.025 -2.1205,0.03 -0.4612,0.084 -0.841,0.4693 -0.9481,0.9216 -0.3972,0.011 -0.8168,-0.057 -1.1932,0.1029 -0.3562,0.1539 -0.6204,0.4888 -0.7005,0.8668 -0.4682,0.084 -0.8457,0.4854 -0.9452,0.9441 -0.6019,0.1081 -1.0301,0.7294 -0.972,1.3291 0,0.1883 0.01,0.3766 0,0.5649 -0.6006,0.1194 -1.0169,0.7509 -0.9473,1.3494 0.012,1.246 -0.017,2.4933 0.021,3.7383 0.07,0.4764 0.464,0.873 0.9277,0.982 0.01,0.4475 -0.07,0.9352 0.1764,1.3374 0.1706,0.2855 0.4712,0.4834 0.793,0.5559 0.083,0.4687 0.4856,0.8456 0.9441,0.9459 0.1093,0.6078 0.7435,1.0398 1.3484,0.9686 1.8623,-0.01 3.7253,0.015 5.5871,-0.017 0.4873,-0.067 0.8941,-0.46851 1.0024,-0.943 0.5055,-0.042 0.9342,-0.4664 1.0386,-0.9554 0.6076,-0.10921 1.0387,-0.74281 0.9696,-1.3472 0.011,-0.1797 -0.021,-0.3821 0.01,-0.54831 0.597,-0.12589 1.0087,-0.7542 0.9385,-1.35119 -0.01,-1.554 0.015,-3.1086 -0.018,-4.6621 -0.065,-0.4918 -0.474,-0.9045 -0.955,-1.0052 -0.085,-0.4682 -0.4865,-0.8453 -0.9452,-0.9452 -0.084,-0.4678 -0.4854,-0.8441 -0.9434,-0.9441 -0.1097,-0.6071 -0.7417,-1.0373 -1.3458,-0.9703 -0.1829,0 -0.3657,0.01 -0.5486,0.01 -0.1084,-0.5396 -0.6312,-0.9438 -1.175,-0.9518 z m -0.832,3.181 c 0.2869,0.3168 0.7329,0.4544 1.1517,0.4035 0.1419,0 0.2837,0 0.4255,0 0.014,0.4076 -0.064,0.8438 0.1315,1.2215 0.1525,0.326 0.4694,0.5555 0.8148,0.6399 0,1.6825 0,3.3651 -0.01,5.0476 -0.4559,0.095 -0.819,0.49 -0.917,0.9397 -0.4598,0.081 -0.8298,0.4713 -0.9386,0.9181 -0.4531,-0.01 -0.9064,0.01 -1.3595,0 -0.098,-0.4474 -0.4741,-0.8094 -0.9167,-0.9137 -0.011,-0.4393 0.069,-0.9148 -0.1634,-1.3137 -0.1627,-0.2921 -0.4618,-0.494 -0.7821,-0.5756 0.01,-1.6816 0,-3.3633 0.01,-5.045 0.4476,-0.097 0.8048,-0.4779 0.9137,-0.9159 0.4381,-0.013 0.9164,0.071 1.3126,-0.1645 0.1158,-0.069 0.2214,-0.1557 0.3092,-0.2583 l 0.012,0.014 z" />
        <path
           id="path13791_32_-7-9-9-5-6-8-72-3-1-4-8-3-8-1-8-17-9-0-4-1-9-4-3-2-2-7-8-5-2-7"
           style="display:inline;opacity:0.998;fill:#ffffff;fill-opacity:1;stroke:#000000;stroke-width:0.174;stroke-miterlimit:4;stroke-dasharray:none;stroke-opacity:1;enable-background:new"
           d="m 777.18739,445.05796 c -0.5339,0.034 -1.0753,-0.04 -1.6047,0.052 -0.5787,0.1432 -1.0197,0.6889 -1.065,1.2796 -0.5349,0.01 -1.0148,0.4033 -1.2103,0.8893 -0.033,0.026 -0.072,-0.1493 -0.1221,-0.1978 -0.2556,-0.4305 -0.7471,-0.6999 -1.2477,-0.6845 -0.9357,0.014 -1.8722,-0.018 -2.8076,0.018 -0.804,0.1148 -1.3908,1.03 -1.1193,1.8046 0.1603,0.5535 0.7007,0.948 1.2576,1.0043 -0.017,0.4327 0,0.8674 -0.01,1.301 0,2.1346 0,4.2693 -0.01,6.4039 -0.5972,0.01 -1.1136,0.4934 -1.2617,1.0565 -0.1816,0.6206 0.1637,1.3219 0.7411,1.5958 0.2827,0.1506 0.6092,0.1807 0.9234,0.1534 1.2889,-0.01 2.579,0.017 3.8671,-0.018 0.8245,-0.1085 1.4132,-1.0673 1.1076,-1.8479 -0.176,-0.528 -0.693,-0.9078 -1.2426,-0.9545 0.017,-0.4836 0,-0.9694 0.01,-1.4539 0,-1.6492 0,-3.3022 -0.01,-4.9489 0.6774,-0.043 1.2837,-0.6288 1.3156,-1.313 0.8171,7.9e-4 1.6363,-0.011 2.4521,0.01 -0.018,0.4506 -10e-5,0.9033 -0.01,1.3548 2e-4,2.1158 0,4.2316 0,6.3474 -0.6619,0.01 -1.2216,0.5913 -1.302,1.2319 -0.09,0.6297 0.3231,1.27039 0.9161,1.4836 0.35,0.1537 0.735,0.077 1.1035,0.092 1.6179,0 3.2367,0.012 4.854,-0.016 0.8245,-0.1025 1.4203,-1.0561 1.1207,-1.8383 -0.2023,-0.6389 -0.8983,-1.0425 -1.5536,-0.9641 -0.3344,-0.012 -0.6818,0.025 -1.0078,-0.013 0.018,-0.5366 0,-1.0747 0.01,-1.612 0,-2.5464 0.01,-5.0933 -0.011,-7.6395 -0.065,-0.7532 -0.8281,-1.3434 -1.572,-1.2535 -0.3524,-0.01 -0.7132,0.019 -1.0602,-0.012 -0.014,-0.5967 -0.4968,-1.1153 -1.0618,-1.2613 -0.1274,-0.035 -0.2602,-0.049 -0.3921,-0.048 z m -5.1673,3.3685 a 0.79180719,0.79179259 0 0 1 0.012,0 0.79180719,0.79179259 0 0 1 0.7917,0.7917 0.79180719,0.79179259 0 0 1 -0.7917,0.7916 0.79180719,0.79179259 0 0 1 -0.7916,-0.7916 0.79180719,0.79179259 0 0 1 0.7803,-0.7917 z" />
        <path
           id="path13840_2_-6-5-8-9-6-9-0-9-1-6-4-3-8-2-0-8-1-3-9-8-4-19-4"
           style="display:inline;fill:#ffffff;fill-opacity:1;stroke:#000000;stroke-width:0.174;stroke-miterlimit:4;stroke-dasharray:none;stroke-opacity:1"
           d="m 791.11569,445.05786 c -0.697,0.024 -1.396,-0.02 -2.0918,0.028 -0.4714,0.084 -0.8615,0.4728 -0.9755,0.9336 -0.4306,0.01 -0.9009,-0.07 -1.2881,0.1667 -0.2999,0.1722 -0.5112,0.4768 -0.5898,0.8114 -0.4707,0.088 -0.8462,0.4917 -0.952,0.9513 -0.6278,0.117 -1.059,0.7817 -0.9783,1.4033 0,0.1577 0.01,0.3154 0,0.4731 -0.6085,0.1285 -1.0279,0.7706 -0.9567,1.3791 0.011,1.2418 -0.015,2.4846 0.019,3.7258 0.073,0.4827 0.4692,0.8848 0.9381,1.0005 0.01,0.4279 -0.07,0.8933 0.1622,1.2796 0.1675,0.3074 0.4795,0.517 0.8155,0.5986 0.088,0.4713 0.4927,0.8451 0.9516,0.9528 0.1155,0.6136 0.7525,1.0403 1.3628,0.9821 1.5715,-0.019 3.1435,0.012 4.7149,-0.02 0.4984,-0.07 0.9112,-0.4821 1.0229,-0.9667 0.4863,-0.089 0.867,-0.5183 0.9567,-0.9957 0.6532,-0.1723 1.0806,-0.9409 0.844,-1.5821 -0.2167,-0.6548 -1.0492,-1.0436 -1.6754,-0.72 -0.3478,0.1625 -0.6087,0.4946 -0.6912,0.8688 -1.0531,-8e-4 -2.1064,0.011 -3.1595,-0.01 -0.1001,-0.4561 -0.4965,-0.8136 -0.9446,-0.9178 -0.087,-0.4605 -0.4754,-0.8329 -0.9245,-0.9446 0,-0.5765 0.014,-1.1539 -0.011,-1.7298 -0.01,-0.2052 -0.078,-0.4056 -0.1961,-0.5736 2.5216,-7.9e-4 5.0437,5e-4 7.5649,0.01 0.6232,-0.073 1.1058,-0.7051 1.0194,-1.3254 -0.012,-0.4771 0.082,-1.0057 -0.1973,-1.4285 -0.1737,-0.264 -0.4506,-0.4548 -0.7555,-0.5342 -0.01,-0.4262 0.07,-0.8899 -0.1602,-1.275 -0.169,-0.3066 -0.4778,-0.5246 -0.8172,-0.6017 -0.1138,-0.6137 -0.7517,-1.0432 -1.362,-0.9832 -0.1485,0 -0.3138,0.019 -0.4531,-6.1e-4 -0.1192,-0.5412 -0.6486,-0.9434 -1.1963,-0.9527 z m -0.8532,3.0904 c 0.1727,0.1795 0.398,0.3072 0.6404,0.3641 0.087,0.4593 0.4734,0.829 0.9197,0.9435 0,0.1341 0,0.2683 0.01,0.4024 -1.359,-0.01 -2.7248,0.01 -4.0796,-0.011 0,-0.1309 -0.01,-0.2618 -0.01,-0.3927 0.4521,-0.095 0.8123,-0.4794 0.9237,-0.9211 0.4309,-0.01 0.8998,0.07 1.2879,-0.1661 0.1093,-0.062 0.2087,-0.1421 0.2932,-0.2355 l 0.013,0.014 z" />
        <path
           id="path13801_13_-3-9-4-8-5-8-7-8-2-7-6-99-9-6-1-5-5-6-0-7-7-2-9-9-9-1"
           style="display:inline;opacity:0.998;fill:#ffffff;fill-opacity:1;stroke:#000000;stroke-width:0.174;stroke-miterlimit:4;stroke-dasharray:none;stroke-opacity:1;enable-background:new"
           d="m 800.06399,442.18736 c -0.6816,-0.01 -1.2872,0.6234 -1.2507,1.3041 -0.062,0.129 -0.2384,0.047 -0.3487,0.093 -0.5949,0.1049 -1.0534,0.6892 -1.0252,1.2903 -0.093,0.1163 -0.2661,0.037 -0.3915,0.089 -0.6401,0.1378 -1.0942,0.8327 -0.955,1.4746 0.095,0.6029 0.6858,1.0688 1.2919,1.0412 0.1183,0.088 0.035,0.2588 0.059,0.3823 0,3.5916 0,7.1833 0.01,10.7747 0.051,0.6704 0.7197,1.2024 1.3831,1.1286 1.3914,-0.01 2.7836,0.015 4.1743,-0.015 0.708,-0.082 1.2239,-0.857 1.0447,-1.5433 -0.1247,-0.6125 -0.7576,-1.0543 -1.3747,-0.9855 -0.4282,-0.01 -0.8615,0.02 -1.2865,-0.016 -0.083,-0.1457 -0.012,-0.32671 -0.035,-0.48681 0,-2.63199 0.01,-5.26419 -0.01,-7.89609 0.4275,0.021 0.8565,0 1.2846,0.01 0.3546,0.01 0.7358,-0.042 1.0077,-0.2923 0.4477,-0.3689 0.5968,-1.054 0.3151,-1.5665 -0.2462,-0.4779 -0.8049,-0.7521 -1.3342,-0.6853 -0.4242,0.01 -0.8486,-0.012 -1.2724,0.01 0.019,-0.3986 0,-0.7981 0.01,-1.1972 -0.01,-0.6281 0.019,-1.2592 -0.023,-1.8855 -0.097,-0.5933 -0.6749,-1.04331 -1.2702,-1.0266 z m 0.058,4.6264 a 0.7146657,0.73648919 0 0 1 0.7146,0.7367 0.7146657,0.73648919 0 0 1 -0.7146,0.7364 0.7146657,0.73648919 0 0 1 -0.7146,-0.7364 0.7146657,0.73648919 0 0 1 0.7146,-0.7367 z" />
        <ellipse
           style="fill:#ffffff;fill-opacity:1;stroke:#000000;stroke-width:0.373999;stroke-linecap:round;stroke-linejoin:round;stroke-miterlimit:4;stroke-dasharray:none;stroke-opacity:1;paint-order:stroke markers fill"
           id="path4982-7-2-8-6-0-0-9-6-9-7-0-2-4-2-2-0-2-2-6-1"
           cx="765.13849"
           cy="458.25513"
           rx="1.3262444"
           ry="1.3262199" />
        <path
           id="path13799_15_-3-9-1-59-5-4-4-44-5-2-0-3-9-9-7-4-5-2-8-5-0-3"
           style="display:inline;opacity:0.998;fill:#ffffff;fill-opacity:1;stroke:#000000;stroke-width:0.174;stroke-miterlimit:4;stroke-dasharray:none;stroke-opacity:1;enable-background:new"
           d="m 713.29659,451.70246 c -0.9528,0.01 -1.9066,-0.013 -2.8586,0.012 -0.6668,0.086 -1.175,0.7829 -1.0501,1.4444 0.083,0.6064 0.6687,1.0926 1.28,1.0617 0.1224,0.075 0.039,0.2441 0.063,0.3599 0,2.1763 0.01,4.3537 -0.01,6.5295 -0.104,0.1024 -0.2733,0.029 -0.401,0.085 -0.5593,0.12979 -0.9768,0.6893 -0.9509,1.2612 -0.087,0.1169 -0.2559,0.034 -0.3777,0.058 -0.8226,0 -1.6501,0.012 -2.4697,-0.014 -0.089,-0.1285 -0.016,-0.2992 -0.039,-0.4454 0,-3.0771 0.01,-6.1544 -0.01,-9.2313 -0.055,-0.667 -0.7282,-1.185 -1.3857,-1.1059 -0.9317,0.01 -1.8651,-0.022 -2.7956,0.02 -0.6708,0.1051 -1.1519,0.8332 -0.9973,1.4923 0.1056,0.5855 0.6827,1.0336 1.2742,1.0066 0.1163,0.088 0.034,0.2559 0.058,0.378 0,2.6563 -0.01,5.313 0.01,7.9691 0.054,0.6347 0.6672,1.1398 1.29571,1.112 0.10639,0.1052 0.031,0.2763 0.087,0.4068 0.14229,0.5905 0.75649,1.01179 1.35819,0.94249 1.3675,0 2.7362,0.012 4.103,-0.014 0.63,-0.073 1.1191,-0.6966 1.07301,-1.32259 0.06,-0.1011 0.19639,-0.027 0.18009,0.079 -0.013,0.5201 0.3632,0.9999 0.8498,1.1611 0.3349,0.1208 0.6951,0.044 1.04211,0.064 0.7645,0 1.5309,0.018 2.2943,-0.02 0.67369,-0.10571 1.15559,-0.8402 0.99509,-1.50131 -0.10949,-0.5813 -0.68339,-1.0237 -1.2713,-0.99759 -0.1179,-0.086 -0.034,-0.25631 -0.059,-0.37801 0,-3.0981 0.01,-6.19629 -0.01,-9.29419 -0.049,-0.6334 -0.64899,-1.1542 -1.2821,-1.1203 z" />
        <path
           id="path13805_13_-5-7-4-6-3-2-1-2-4-0-1-6-2-1-2-9-6-1-3-3-8-7-6-0"
           style="display:inline;opacity:0.998;fill:#ffffff;fill-opacity:1;stroke:#000000;stroke-width:0.174;stroke-miterlimit:4;stroke-dasharray:none;stroke-opacity:1;enable-background:new"
           d="m 749.49129,440.53706 c -0.4964,0.018 -0.9948,-0.016 -1.4903,0.018 -0.6622,0.053 -1.1999,0.658 -1.2363,1.3108 -0.5281,0 -1.0089,0.3846 -1.2083,0.863 -0.2218,-0.5596 -0.8232,-0.9406 -1.4252,-0.8891 -0.9148,0.014 -1.8309,-0.017 -2.7447,0.02 -0.755,0.1081 -1.3147,0.9211 -1.1435,1.6653 0.112,0.6114 0.6765,1.0985 1.295,1.1337 -0.01,1.1622 0,2.3265 0,3.4894 0,1.3998 0,2.8034 -0.01,4.2007 -0.6389,0 -1.1882,0.551 -1.2926,1.1657 -0.099,0.5439 0.1628,1.1274 0.6345,1.4161 0.2891,0.1944 0.6459,0.2551 0.9881,0.2222 1.7409,-0.01 3.4827,0.015 5.2229,-0.016 0.7958,-0.094 1.3743,-0.9844 1.1415,-1.7503 -0.1657,-0.6616 -0.8672,-1.1127 -1.5374,-1.0327 -0.3465,-0.01 -0.6932,0.011 -1.0395,-0.01 0.017,-0.5173 0,-1.0362 0.01,-1.5542 0,-1.6106 0,-3.2212 0.01,-4.8317 0.6582,-0.01 1.2255,-0.584 1.302,-1.2248 -0.015,-0.1106 0.1288,-0.061 0.2011,-0.096 0.3817,-0.085 0.7253,-0.3335 0.922,-0.6722 0.01,0.4465 -0.048,0.9322 0.2014,1.3294 0.288,0.4818 0.8753,0.7395 1.4267,0.6726 0.5135,-0.016 1.0393,0.054 1.5428,-0.072 0.6268,-0.2042 1.0289,-0.8891 0.9449,-1.5361 -0.017,-0.5166 0.054,-1.0455 -0.07,-1.5524 -0.1722,-0.5346 -0.698,-0.9216 -1.2545,-0.957 -0.01,-0.6592 -0.5822,-1.2305 -1.2256,-1.3058 -0.052,-0.01 -0.1048,-0.01 -0.1569,-0.011 z" />
        <path
           id="path13801_13_-3-9-4-8-3-8-5-4-7-9-0-0-5-6-9-4-0-8-6-7-7-8-4-49-3"
           style="display:inline;opacity:0.998;fill:#ffffff;fill-opacity:1;stroke:#000000;stroke-width:0.174;stroke-miterlimit:4;stroke-dasharray:none;stroke-opacity:1;enable-background:new"
           d="m 719.43689,443.75446 c -0.6816,-0.01 -1.2872,0.6234 -1.2507,1.3041 -0.062,0.129 -0.2383,0.047 -0.3487,0.093 -0.5948,0.1049 -1.0534,0.6892 -1.0252,1.2903 -0.093,0.1163 -0.2661,0.037 -0.3914,0.089 -0.6401,0.1379 -1.0943,0.8327 -0.955,1.4746 0.095,0.603 0.6858,1.0688 1.2919,1.0412 0.1184,0.088 0.035,0.2589 0.059,0.3823 0,3.5916 -0.01,7.1833 0.01,10.7747 0.051,0.6704 0.7196,1.2025 1.383,1.1286 1.3914,-0.01 2.7836,0.015 4.1744,-0.015 0.7079,-0.082 1.2239,-0.857 1.0446,-1.5433 -0.1246,-0.6125 -0.7575,-1.0542 -1.3746,-0.9855 -0.4283,-0.01 -0.8616,0.02 -1.2866,-0.016 -0.082,-0.1456 -0.012,-0.3267 -0.035,-0.4867 0,-2.6321 0.01,-5.2641 -0.01,-7.8962 0.4276,0.021 0.8566,0 1.2847,0.01 0.3546,0.01 0.7358,-0.042 1.0076,-0.2922 0.4477,-0.369 0.5969,-1.0541 0.3151,-1.5666 -0.2462,-0.4778 -0.8049,-0.752 -1.3342,-0.6852 -0.4242,0.01 -0.8485,-0.012 -1.2724,0.01 0.019,-0.3986 0,-0.7981 0.01,-1.1973 -0.01,-0.6281 0.018,-1.2592 -0.023,-1.8855 -0.097,-0.5933 -0.6748,-1.0433 -1.2701,-1.0266 z m 0.058,4.6264 a 0.7146657,0.73648919 0 0 1 0.7146,0.7368 0.7146657,0.73648919 0 0 1 -0.7146,0.7363 0.7146657,0.73648919 0 0 1 -0.7146,-0.7363 0.7146657,0.73648919 0 0 1 0.7146,-0.7368 z" />
        <path
           id="path13799_15_-3-9-1-59-5-4-4-0-3-2-4-9-4-7-8-9-5-6-5-6-9-9-2"
           style="display:inline;opacity:0.998;fill:#ffffff;fill-opacity:1;stroke:#000000;stroke-width:0.174;stroke-miterlimit:4;stroke-dasharray:none;stroke-opacity:1;enable-background:new"
           d="m 736.58099,445.32566 c -0.9528,0.01 -1.9066,-0.013 -2.8586,0.012 -0.6667,0.086 -1.1749,0.7828 -1.0501,1.4443 0.083,0.6064 0.6687,1.0926 1.28,1.0617 0.1224,0.075 0.039,0.2441 0.063,0.3599 0,2.1764 0.01,4.3537 -0.01,6.5295 -0.104,0.1025 -0.2733,0.029 -0.401,0.085 -0.5593,0.1298 -0.9768,0.6893 -0.9509,1.2612 -0.087,0.1169 -0.2559,0.034 -0.3777,0.058 -0.8226,0 -1.6501,0.012 -2.4697,-0.014 -0.089,-0.1284 -0.016,-0.2992 -0.039,-0.4454 0,-3.077 0.01,-6.1544 -0.01,-9.2313 -0.055,-0.667 -0.7282,-1.185 -1.3858,-1.1059 -0.9316,0.01 -1.865,-0.022 -2.7955,0.02 -0.6708,0.1052 -1.1519,0.8332 -0.9973,1.4923 0.1055,0.5856 0.6827,1.0336 1.2743,1.0066 0.1162,0.088 0.034,0.256 0.058,0.3781 0,2.6563 -0.01,5.3129 0.01,7.969 0.054,0.6348 0.6671,1.1398 1.2956,1.112 0.1064,0.1052 0.031,0.2764 0.087,0.4069 0.1423,0.5904 0.7565,1.0117 1.3581,0.9424 1.3676,0 2.7363,0.012 4.1031,-0.014 0.63,-0.073 1.1191,-0.6966 1.0729,-1.3226 0.06,-0.1011 0.1965,-0.027 0.1802,0.079 -0.013,0.5201 0.3632,1 0.8498,1.1611 0.3349,0.1208 0.695,0.044 1.0421,0.064 0.7645,0 1.5309,0.018 2.2943,-0.02 0.6737,-0.1057 1.1556,-0.8402 0.9951,-1.5012 -0.1095,-0.5814 -0.6834,-1.0238 -1.2713,-0.9977 -0.1179,-0.086 -0.034,-0.2563 -0.059,-0.378 0,-3.098 0.01,-6.1963 -0.01,-9.2941 -0.049,-0.6335 -0.649,-1.1543 -1.2821,-1.1204 z" />
        <path
           id="rect10916-0-6-1-3-7-7-4-3-4-1-0-7-8-9-8-9-08-1"
           style="fill:#ffffff;fill-opacity:1;stroke:#000000;stroke-width:0.373999;stroke-linecap:round;stroke-linejoin:round;stroke-miterlimit:4;stroke-dasharray:none;stroke-opacity:1;paint-order:stroke markers fill"
           d="m 757.56709,438.40506 c -1.0307,0 -1.8604,0.8304 -1.8604,1.862 0,0.2398 0.046,0.4681 0.128,0.6782 h -0.2677 c -1.0307,0 -1.8604,0.8304 -1.8604,1.862 0,1.0315 0.8297,1.8619 1.8604,1.8619 h 0.6936 c -0.06,0.1827 -0.093,0.3776 -0.093,0.5807 0,1.0316 0.8302,1.8625 1.8609,1.8625 h 2.4512 c 0.3179,0 0.5421,0.3214 0.5391,0.6751 0,0.2441 0.047,0.4764 0.132,0.6897 -0.1796,-0.058 -0.3708,-0.089 -0.5699,-0.089 h -5.0028 c -1.0306,0 -1.8603,0.8303 -1.8603,1.8619 0,1.0316 0.8296,1.8624 1.8603,1.8624 h 5.0028 c 1.0307,0 1.8603,-0.8308 1.8603,-1.8624 0,-0.2441 -0.048,-0.4759 -0.1325,-0.6891 0.1797,0.058 0.3711,0.089 0.5704,0.089 h 0.1573 c 1.0307,0 1.8603,-0.8309 1.8603,-1.8625 0,-1.0315 -0.8296,-1.8619 -1.8603,-1.8619 -0.3727,0 -0.6045,-0.3832 -0.6138,-0.6803 0,-8e-4 0,-8e-4 0,0 0,-1.0284 -0.8318,-1.8552 -1.8603,-1.8552 h -2.376 c 2e-4,-8e-4 2e-4,-8e-4 0,0 -0.016,7.9e-4 -0.033,0 -0.049,0 -0.3471,10e-5 -0.6286,-0.2814 -0.6287,-0.6288 -10e-5,-0.3475 0.2814,-0.6293 0.6287,-0.6292 0,10e-5 0.01,2e-4 0.014,5e-4 -10e-5,-2e-4 -2.7e-4,-7.9e-4 0,-7.9e-4 h 4.96199 c 1.03071,0 1.86031,-0.8308 1.86031,-1.8624 0,-1.0316 -0.8296,-1.8619 -1.86031,-1.8619 z"
           sodipodi:nodetypes="sscssscsscccsssssscssscccscccccccssss" />
        <path
           id="rect10916-0-6-1-3-7-7-0-7-6-2-3-6-8-1-2-3-4-9-7"
           style="fill:#ffffff;fill-opacity:1;stroke:#000000;stroke-width:0.373999;stroke-linecap:round;stroke-linejoin:round;stroke-miterlimit:4;stroke-dasharray:none;stroke-opacity:1;paint-order:stroke markers fill"
           d="m 679.20669,446.03326 c -1.0307,0 -1.8603,0.8304 -1.8603,1.862 0,0.2398 0.046,0.4681 0.1279,0.6782 h -0.2677 c -1.0306,0 -1.8603,0.8304 -1.8603,1.8619 0,1.0316 0.8296,1.862 1.8603,1.862 h 0.6937 c -0.06,0.1827 -0.093,0.3776 -0.093,0.5807 0,1.0316 0.8302,1.8624 1.8609,1.8624 h 2.4512 c 0.3179,0 0.5421,0.3215 0.5391,0.6752 0,0.2441 0.047,0.4764 0.132,0.6897 -0.1796,-0.057 -0.3708,-0.089 -0.5699,-0.089 h -5.0028 c -1.0307,0 -1.8603,0.8303 -1.8603,1.8619 0,1.0316 0.8296,1.8624 1.8603,1.8624 h 5.0028 c 1.0307,0 1.8603,-0.8308 1.8603,-1.8624 0,-0.2441 -0.048,-0.4759 -0.1325,-0.6891 0.1797,0.058 0.3711,0.089 0.5704,0.089 h 0.1573 c 1.0307,0 1.8603,-0.8309 1.8603,-1.8625 0,-1.0315 -0.8296,-1.8619 -1.8603,-1.8619 -0.3727,0 -0.6045,-0.3832 -0.6138,-0.6803 0,-8e-4 -5.3e-4,-8e-4 -5.3e-4,0 0,-1.0284 -0.8319,-1.8552 -1.8603,-1.8552 h -2.3761 c 2e-4,-8e-4 2e-4,-8e-4 5.3e-4,0 -0.016,7.9e-4 -0.033,0 -0.049,0 -0.3471,10e-5 -0.6286,-0.2814 -0.6287,-0.6288 -10e-5,-0.3475 0.2814,-0.6293 0.6287,-0.6292 0,10e-5 0.01,2e-4 0.013,5e-4 -2e-4,-2e-4 -2.6e-4,-7.9e-4 -5.3e-4,-7.9e-4 h 4.96211 c 1.03059,0 1.86029,-0.8308 1.86029,-1.8624 0,-1.0316 -0.8297,-1.8619 -1.86029,-1.8619 z"
           sodipodi:nodetypes="sscssscsscccsssssscssscccscccccccssss" />
        <path
           id="path13797_34_-6-5-8-4-3-0-6-1-0-5-9-7-2-15-9-6-8-8-6-0-1-8-5-3-2-8-5-3-5"
           style="display:inline;fill:#ffffff;fill-opacity:1;stroke:#000000;stroke-width:0.174;stroke-miterlimit:4;stroke-dasharray:none;stroke-opacity:1"
           d="m 698.48999,449.19086 c -0.8593,0 -1.5513,0.6919 -1.5513,1.5513 v 1.2004 c 0,0.8594 0.692,1.5513 1.5513,1.5513 0.8594,0 1.5508,-0.6919 1.5508,-1.5513 v -1.2004 c 0,-0.8594 -0.6914,-1.5513 -1.5508,-1.5513 z m -5.2002,0 c -1.1278,0 -1.4743,0.7651 -1.4743,1.9032 v 0.708 c -1.0504,0 -1.2945,0.7379 -1.2945,1.8696 0,0.6731 -0.014,1.3514 -0.014,2.019 -0.4222,0 -0.8254,-0.019 -1.2361,0.018 -0.2921,0.025 -0.5919,0.1005 -0.8098,0.3085 -0.6033,0.5213 -0.7076,1.5493 -0.155,2.1446 0.3606,0.4172 0.8762,0.5002 1.4743,0.5002 0.2694,0 0.485,0 0.7504,0 -0.013,0.975 0,1.9507 -0.01,2.926 0,1.4976 0,2.9951 -0.012,4.4927 -0.5513,0 -1.1159,-0.053 -1.6542,0.095 -0.545,0.1842 -0.8843,0.7581 -0.9126,1.3157 -0.045,0.5657 0.2751,1.1452 0.7953,1.3824 0.3807,0.1593 0.8508,0.1591 1.2836,0.1591 1.764,0 3.1527,0 4.7879,-0.01 0.83,0 1.2635,-0.7293 1.2635,-1.3735 0,-1.0526 -0.5346,-1.5819 -1.2635,-1.5819 0,-2.4664 0,-4.9521 0,-7.4223 0.3998,0 1.171,-5.3e-4 1.171,-5.3e-4 0.8454,0 1.3348,-0.4754 1.3348,-1.5043 0,-0.9444 -0.597,-1.4511 -1.3385,-1.4511 -0.2014,-7.9e-4 -0.966,-0.01 -1.1673,0 v -3.52646 c 0.9667,0 1.2087,-1.0256 1.2087,-1.6288 0,-0.7339 -0.4492,-1.341 -1.1576,-1.341 z"
           sodipodi:nodetypes="ssssssscscccccccccccccccscccscccscc" />
      </g>
    </g>
  </g>
</svg>
