<?xml version="1.0" encoding="utf-8"?>
<!-- Generator: Adobe Illustrator 16.0.0, SVG Export Plug-In . SVG Version: 6.00 Build 0)  -->
<!DOCTYPE svg PUBLIC "-//W3C//DTD SVG 1.1//EN" "http://www.w3.org/Graphics/SVG/1.1/DTD/svg11.dtd">
<svg version="1.1"
	 id="svg6" xmlns:dc="http://purl.org/dc/elements/1.1/" xmlns:cc="http://creativecommons.org/ns#" xmlns:rdf="http://www.w3.org/1999/02/22-rdf-syntax-ns#" xmlns:svg="http://www.w3.org/2000/svg" xmlns:sodipodi="http://sodipodi.sourceforge.net/DTD/sodipodi-0.dtd" xmlns:inkscape="http://www.inkscape.org/namespaces/inkscape" inkscape:version="1.0 (262b4497e3, 2020-09-04)" sodipodi:docname="008-youtube.svg"
	 xmlns="http://www.w3.org/2000/svg" xmlns:xlink="http://www.w3.org/1999/xlink" x="0px" y="0px" width="512px" height="512px"
	 viewBox="0 0 512 512" style="enable-background:new 0 0 512 512;" xml:space="preserve">
<sodipodi:namedview  inkscape:cy="341.33333" inkscape:cx="341.33333" inkscape:zoom="1.2641602" showgrid="false" guidetolerance="10" gridtolerance="10" objecttolerance="10" bordercolor="#666666" pagecolor="#ffffff" borderopacity="1" id="namedview8" inkscape:current-layer="svg6" inkscape:window-maximized="1" inkscape:window-y="27" inkscape:window-x="0" inkscape:window-height="1029" inkscape:window-width="1920" inkscape:pageshadow="2" inkscape:pageopacity="0">
	</sodipodi:namedview>
<path d="M256,0C114.637,0,0,114.637,0,256c0,141.363,114.637,256,256,256c141.363,0,256-114.637,256-256S397.363,0,256,0z
	 M82.751,326.739c-4.385,0-3.739-5.396-3.739-5.396v-64.18c0,0-0.646-3.514,3.739-3.514c4.514,0,11.54,15.182,11.54,35.252
	C94.291,313.335,88.406,326.739,82.751,326.739z M127.089,327.742c0,3.575-4.189,8.477-9.364,8.477
	c-5.223,0-9.413-5.396-9.413-8.976c0,0-1.111-14.412-1.111-40.233c0-16.923,2.61-47.864,2.61-47.864c0-3.531,2.69-9.382,7.898-9.382
	c5.172,0,8.363,5.851,8.363,9.364c0,0,3.32,18.101,3.32,47.707C129.394,312.656,127.089,327.742,127.089,327.742z M158.55,328.776
	c0,3.574-3.192,7.458-8.366,7.458c-5.206,0-8.896-3.884-8.896-7.458c0,0-2.886-15.426-2.886-41.247
	c0-16.923,4.385-42.615,4.385-42.615c0-3.544,2.675-9.379,7.898-9.379c5.172,0,6.849,5.835,6.849,9.379
	c0,0,4.079,13.217,4.079,42.826C161.613,313.562,158.55,328.776,158.55,328.776z M192.123,329.754c0,3.579-4.192,6.465-9.364,6.465
	c-5.224,0-9.413-2.886-9.413-6.465c0,0-1.918-16.419-1.918-42.24c0-16.922,3.932-70.465,3.932-70.465c0-3.531,2.693-9.38,7.898-9.38
	c5.174,0,6.851,5.849,6.851,9.364c0,0,3.318,41.082,3.318,70.687C193.427,313.525,192.123,329.754,192.123,329.754z
	 M223.792,329.774c0,3.579-3.191,6.46-8.363,6.46c-5.206,0-9.413-2.881-9.413-6.46c0,0-2.417-16.424-2.417-42.245
	c0-16.923,3.932-74.801,3.932-74.801c0-3.529,2.693-9.379,7.898-9.379c5.156,0,8.397,3.513,10.202,9.881
	c2.111,7.494,4.578,44.402,4.578,74.007C230.209,313.042,223.792,329.774,223.792,329.774z M384.384,336.028H246.969
	c-8.057,0-8.057-7.803-8.057-7.803V196.708c13.474-9.848,29.071-21.21,47.239-21.21c39.601,0,78.101,27.771,84.823,64.291
	c4.274-1.191,8.75-1.87,13.409-1.87c26.66,0,48.351,21.356,48.351,47.26C432.734,311.041,411.059,336.028,384.384,336.028z"/>
</svg>
